EESchema Schematic File Version 2
LIBS:InfinityTable-rescue
LIBS:power
LIBS:device
LIBS:transistors
LIBS:conn
LIBS:linear
LIBS:regul
LIBS:74xx
LIBS:cmos4000
LIBS:adc-dac
LIBS:memory
LIBS:xilinx
LIBS:microcontrollers
LIBS:dsp
LIBS:microchip
LIBS:analog_switches
LIBS:motorola
LIBS:texas
LIBS:intel
LIBS:audio
LIBS:interface
LIBS:digital-audio
LIBS:philips
LIBS:display
LIBS:cypress
LIBS:siliconi
LIBS:opto
LIBS:atmel
LIBS:contrib
LIBS:valves
LIBS:InfinityTable-cache
EELAYER 25 0
EELAYER END
$Descr A2 23386 16535
encoding utf-8
Sheet 1 1
Title ""
Date ""
Rev ""
Comp ""
Comment1 ""
Comment2 ""
Comment3 ""
Comment4 ""
$EndDescr
$Comp
L STM32L431RBT6 U2
U 1 1 5960EB38
P 10300 4650
F 0 "U2" H 10300 4800 60  0000 C CNN
F 1 "STM32L431RBT6" H 10300 4500 60  0000 C CNN
F 2 "WowWeeFootprints:QFP_64_dot" H 10600 4450 60  0001 C CNN
F 3 "" H 10600 4450 60  0001 C CNN
	1    10300 4650
	1    0    0    -1  
$EndComp
Text Label 7350 4500 0    60   ~ 0
MCU_NRESET
$Comp
L GND #PWR18
U 1 1 5960EC13
P 9200 2300
F 0 "#PWR18" H 9200 2050 50  0001 C CNN
F 1 "GND" H 9200 2150 50  0000 C CNN
F 2 "" H 9200 2300 50  0001 C CNN
F 3 "" H 9200 2300 50  0001 C CNN
	1    9200 2300
	1    0    0    -1  
$EndComp
$Comp
L GND #PWR16
U 1 1 5960EDA9
P 8400 5950
F 0 "#PWR16" H 8400 5700 50  0001 C CNN
F 1 "GND" H 8400 5800 50  0000 C CNN
F 2 "" H 8400 5950 50  0001 C CNN
F 3 "" H 8400 5950 50  0001 C CNN
	1    8400 5950
	1    0    0    -1  
$EndComp
Text Label 7350 5200 0    60   ~ 0
OPAMP_VINP
Text Label 7350 5300 0    60   ~ 0
OPAMP_VINM
Text Label 10150 6850 1    60   ~ 0
LED_STRIP_DO
Text Label 13150 4400 2    60   ~ 0
UART_RX
Text Label 13150 4500 2    60   ~ 0
UART_TX
$Comp
L +3V3 #PWR20
U 1 1 5960F0D9
P 9550 3200
F 0 "#PWR20" H 9550 3050 50  0001 C CNN
F 1 "+3V3" H 9550 3340 50  0000 C CNN
F 2 "" H 9550 3200 50  0001 C CNN
F 3 "" H 9550 3200 50  0001 C CNN
	1    9550 3200
	1    0    0    -1  
$EndComp
$Comp
L +3V3 #PWR8
U 1 1 5960F12A
P 6550 4750
F 0 "#PWR8" H 6550 4600 50  0001 C CNN
F 1 "+3V3" H 6550 4890 50  0000 C CNN
F 2 "" H 6550 4750 50  0001 C CNN
F 3 "" H 6550 4750 50  0001 C CNN
	1    6550 4750
	1    0    0    -1  
$EndComp
$Comp
L +3V3 #PWR23
U 1 1 5960F175
P 11400 6000
F 0 "#PWR23" H 11400 5850 50  0001 C CNN
F 1 "+3V3" H 11400 6140 50  0000 C CNN
F 2 "" H 11400 6000 50  0001 C CNN
F 3 "" H 11400 6000 50  0001 C CNN
	1    11400 6000
	1    0    0    -1  
$EndComp
$Comp
L GND #PWR21
U 1 1 5960F1C3
P 9650 6050
F 0 "#PWR21" H 9650 5800 50  0001 C CNN
F 1 "GND" H 9650 5900 50  0000 C CNN
F 2 "" H 9650 6050 50  0001 C CNN
F 3 "" H 9650 6050 50  0001 C CNN
	1    9650 6050
	1    0    0    -1  
$EndComp
$Comp
L GND #PWR22
U 1 1 5960F1D1
P 10950 6050
F 0 "#PWR22" H 10950 5800 50  0001 C CNN
F 1 "GND" H 10950 5900 50  0000 C CNN
F 2 "" H 10950 6050 50  0001 C CNN
F 3 "" H 10950 6050 50  0001 C CNN
	1    10950 6050
	1    0    0    -1  
$EndComp
$Comp
L R R2
U 1 1 5960F452
P 7300 4150
F 0 "R2" V 7380 4150 50  0000 C CNN
F 1 "47k" V 7200 4150 50  0000 C CNN
F 2 "Resistors_ThroughHole:R_Axial_DIN0207_L6.3mm_D2.5mm_P15.24mm_Horizontal" V 7230 4150 50  0001 C CNN
F 3 "" H 7300 4150 50  0001 C CNN
	1    7300 4150
	1    0    0    -1  
$EndComp
$Comp
L +3V3 #PWR10
U 1 1 5960F497
P 7300 3650
F 0 "#PWR10" H 7300 3500 50  0001 C CNN
F 1 "+3V3" H 7300 3790 50  0000 C CNN
F 2 "" H 7300 3650 50  0001 C CNN
F 3 "" H 7300 3650 50  0001 C CNN
	1    7300 3650
	1    0    0    -1  
$EndComp
Text Label 8050 4600 0    60   ~ 0
POT1
Text Label 8050 4700 0    60   ~ 0
POT2
Text Label 8050 4800 0    60   ~ 0
POT3
$Comp
L GND #PWR13
U 1 1 5960FABE
P 8000 5950
F 0 "#PWR13" H 8000 5700 50  0001 C CNN
F 1 "GND" H 8000 5800 50  0000 C CNN
F 2 "" H 8000 5950 50  0001 C CNN
F 3 "" H 8000 5950 50  0001 C CNN
	1    8000 5950
	1    0    0    -1  
$EndComp
$Comp
L GND #PWR12
U 1 1 5960FADE
P 7750 5950
F 0 "#PWR12" H 7750 5700 50  0001 C CNN
F 1 "GND" H 7750 5800 50  0000 C CNN
F 2 "" H 7750 5950 50  0001 C CNN
F 3 "" H 7750 5950 50  0001 C CNN
	1    7750 5950
	1    0    0    -1  
$EndComp
$Comp
L GND #PWR11
U 1 1 5960FAFE
P 7500 5950
F 0 "#PWR11" H 7500 5700 50  0001 C CNN
F 1 "GND" H 7500 5800 50  0000 C CNN
F 2 "" H 7500 5950 50  0001 C CNN
F 3 "" H 7500 5950 50  0001 C CNN
	1    7500 5950
	1    0    0    -1  
$EndComp
$Comp
L GND #PWR9
U 1 1 5960FB1E
P 7150 5950
F 0 "#PWR9" H 7150 5700 50  0001 C CNN
F 1 "GND" H 7150 5800 50  0000 C CNN
F 2 "" H 7150 5950 50  0001 C CNN
F 3 "" H 7150 5950 50  0001 C CNN
	1    7150 5950
	1    0    0    -1  
$EndComp
Text Label 11050 2450 3    60   ~ 0
SWD_CLK
Text Label 13100 3900 2    60   ~ 0
SWD_IO
$Comp
L ElectretMic M1
U 1 1 59611131
P 8100 9400
F 0 "M1" H 8100 10300 60  0000 C CNN
F 1 "ElectretMic" H 8100 10400 60  0000 C CNN
F 2 "WowWeeFootprints:B2B-ZR(LF)(SN)" H 8100 9400 60  0001 C CNN
F 3 "" H 8100 9400 60  0001 C CNN
	1    8100 9400
	1    0    0    -1  
$EndComp
$Comp
L DF13-5P-1.25DSA J2
U 1 1 59611452
P 4650 7650
F 0 "J2" H 4450 7500 60  0000 C CNN
F 1 "DF13-5P-1.25DSA" H 4450 7600 60  0001 C CNN
F 2 "WowWeeFootprints:DF13-5P-1.25DSA" H 4650 7650 60  0001 C CNN
F 3 "" H 4650 7650 60  0001 C CNN
F 4 "DF13-5P-1.25DSA" H 4650 7650 60  0001 C CNN "PN"
	1    4650 7650
	1    0    0    -1  
$EndComp
$Comp
L DF13-4P-1.25DSA J3
U 1 1 596114DD
P 4650 8850
F 0 "J3" H 4450 8700 60  0000 C CNN
F 1 "DF13-4P-1.25DSA" H 4450 8800 60  0001 C CNN
F 2 "WowWeeFootprints:DF13-4P-1.25DSA" H 4650 8850 60  0001 C CNN
F 3 "" H 4650 8850 60  0001 C CNN
F 4 "DF13-4P-1.25DSA" H 4650 8850 60  0001 C CNN "PN"
	1    4650 8850
	1    0    0    -1  
$EndComp
$Comp
L +3V3 #PWR5
U 1 1 5961172B
P 4850 7750
F 0 "#PWR5" H 4850 7600 50  0001 C CNN
F 1 "+3V3" H 4850 7890 50  0000 C CNN
F 2 "" H 4850 7750 50  0001 C CNN
F 3 "" H 4850 7750 50  0001 C CNN
	1    4850 7750
	1    0    0    -1  
$EndComp
$Comp
L GND #PWR6
U 1 1 596117A8
P 4850 8500
F 0 "#PWR6" H 4850 8250 50  0001 C CNN
F 1 "GND" H 4850 8350 50  0000 C CNN
F 2 "" H 4850 8500 50  0001 C CNN
F 3 "" H 4850 8500 50  0001 C CNN
	1    4850 8500
	1    0    0    -1  
$EndComp
Text Label 5450 8350 2    60   ~ 0
MCU_NRESET
Text Label 5450 8250 2    60   ~ 0
SWD_IO
Text Label 5450 8050 2    60   ~ 0
SWD_CLK
Text Notes 3800 8200 0    118  ~ 24
SWD
Text Notes 3700 9350 0    118  ~ 24
UART
$Comp
L +3V3 #PWR3
U 1 1 59612C13
P 4800 9100
F 0 "#PWR3" H 4800 8950 50  0001 C CNN
F 1 "+3V3" H 4800 9240 50  0000 C CNN
F 2 "" H 4800 9100 50  0001 C CNN
F 3 "" H 4800 9100 50  0001 C CNN
	1    4800 9100
	1    0    0    -1  
$EndComp
$Comp
L GND #PWR4
U 1 1 59612C99
P 4800 9500
F 0 "#PWR4" H 4800 9250 50  0001 C CNN
F 1 "GND" H 4800 9350 50  0000 C CNN
F 2 "" H 4800 9500 50  0001 C CNN
F 3 "" H 4800 9500 50  0001 C CNN
	1    4800 9500
	1    0    0    -1  
$EndComp
Text Label 5350 9250 2    60   ~ 0
UART_TX
Text Label 5350 9350 2    60   ~ 0
UART_RX
$Comp
L POT-RESCUE-InfinityTable RV1
U 1 1 596149C6
P 18750 3650
F 0 "RV1" V 18700 3450 50  0000 C CNN
F 1 "POT" V 18800 3450 50  0000 C CNN
F 2 "WowWeeFootprints:PTV09A-4" H 18750 3650 50  0001 C CNN
F 3 "" H 18750 3650 50  0001 C CNN
F 4 "PTV09A-4030U-B203" V 18750 3650 60  0001 C CNN "PN"
	1    18750 3650
	0    1    1    0   
$EndComp
$Comp
L POT-RESCUE-InfinityTable RV2
U 1 1 59615906
P 19950 3650
F 0 "RV2" V 19900 3500 50  0000 C CNN
F 1 "POT" V 20000 3500 50  0000 C CNN
F 2 "WowWeeFootprints:PTV09A-4" H 19950 3650 50  0001 C CNN
F 3 "" H 19950 3650 50  0001 C CNN
F 4 "PTV09A-4030U-B203" V 20050 4250 60  0000 C CNN "PN"
	1    19950 3650
	0    1    1    0   
$EndComp
$Comp
L POT-RESCUE-InfinityTable RV3
U 1 1 5961595C
P 21400 3650
F 0 "RV3" V 21350 3500 50  0000 C CNN
F 1 "POT" V 21450 3500 50  0000 C CNN
F 2 "WowWeeFootprints:PTV09A-4" H 21400 3650 50  0001 C CNN
F 3 "" H 21400 3650 50  0001 C CNN
F 4 "PTV09A-4030U-B203" V 21400 3650 60  0001 C CNN "PN"
	1    21400 3650
	0    1    1    0   
$EndComp
Text Label 19400 3650 2    60   ~ 0
POT1_POW
Text Label 20650 3650 2    60   ~ 0
POT2_POW
Text Label 22150 3650 2    60   ~ 0
POT3_POW
$Comp
L R R3
U 1 1 5961675B
P 8800 7700
F 0 "R3" H 8900 7700 50  0000 C CNN
F 1 "4.7k" H 8650 7700 50  0000 C CNN
F 2 "Resistors_ThroughHole:R_Axial_DIN0207_L6.3mm_D2.5mm_P15.24mm_Horizontal" V 8730 7700 50  0001 C CNN
F 3 "" H 8800 7700 50  0001 C CNN
	1    8800 7700
	1    0    0    -1  
$EndComp
$Comp
L R R5
U 1 1 59616994
P 9650 9650
F 0 "R5" V 9730 9650 50  0000 C CNN
F 1 "100k" V 9550 9650 50  0000 C CNN
F 2 "Resistors_ThroughHole:R_Axial_DIN0207_L6.3mm_D2.5mm_P15.24mm_Horizontal" V 9580 9650 50  0001 C CNN
F 3 "" H 9650 9650 50  0001 C CNN
	1    9650 9650
	1    0    0    -1  
$EndComp
$Comp
L R R4
U 1 1 59616A40
P 9650 9200
F 0 "R4" V 9730 9200 50  0000 C CNN
F 1 "100k" V 9550 9200 50  0000 C CNN
F 2 "Resistors_ThroughHole:R_Axial_DIN0207_L6.3mm_D2.5mm_P15.24mm_Horizontal" V 9580 9200 50  0001 C CNN
F 3 "" H 9650 9200 50  0001 C CNN
	1    9650 9200
	1    0    0    -1  
$EndComp
$Comp
L R R6
U 1 1 59616AAD
P 11650 8100
F 0 "R6" V 11730 8100 50  0000 C CNN
F 1 "100k" V 11550 8100 50  0000 C CNN
F 2 "Resistors_ThroughHole:R_Axial_DIN0207_L6.3mm_D2.5mm_P15.24mm_Horizontal" V 11580 8100 50  0001 C CNN
F 3 "" H 11650 8100 50  0001 C CNN
	1    11650 8100
	0    1    1    0   
$EndComp
$Comp
L C C11
U 1 1 59616C5F
P 11650 7750
F 0 "C11" V 11400 7700 50  0000 L CNN
F 1 "12p" V 11500 7700 50  0000 L CNN
F 2 "Capacitors_ThroughHole:C_Rect_L7.0mm_W2.5mm_P5.00mm" H 11688 7600 50  0001 C CNN
F 3 "" H 11650 7750 50  0001 C CNN
F 4 "K120J15C0GF5TL2" V 11300 7750 60  0000 C CNN "PN"
	1    11650 7750
	0    1    1    0   
$EndComp
Text GLabel 9650 8850 1    59   Input ~ 0
3V3A
$Comp
L GND #PWR19
U 1 1 59617CDE
P 9300 10000
F 0 "#PWR19" H 9300 9750 50  0001 C CNN
F 1 "GND" H 9300 9850 50  0000 C CNN
F 2 "" H 9300 10000 50  0001 C CNN
F 3 "" H 9300 10000 50  0001 C CNN
	1    9300 10000
	1    0    0    -1  
$EndComp
Text Notes 11150 9000 0    118  ~ 0
+
Text Notes 11150 8750 0    118  ~ 0
-
$Comp
L C C9
U 1 1 59618FD7
P 9550 8250
F 0 "C9" V 9700 8200 50  0000 L CNN
F 1 "6.8u" V 9400 8200 50  0000 L CNN
F 2 "Capacitors_ThroughHole:C_Rect_L7.0mm_W2.5mm_P5.00mm" H 9588 8100 50  0001 C CNN
F 3 "" H 9550 8250 50  0001 C CNN
F 4 "FK28X5R0J685K" V 9300 8250 60  0000 C CNN "PN"
	1    9550 8250
	0    1    1    0   
$EndComp
Text Label 10350 8950 0    60   ~ 0
OPAMP_VINP
Text Label 10350 8700 0    60   ~ 0
OPAMP_VINM
Text Label 12050 5100 0    59   ~ 0
BUTTON1
Text Label 12050 5200 0    59   ~ 0
BUTTON2
$Comp
L SW_DIP_x01 SW2
U 1 1 5961F712
P 20950 13150
F 0 "SW2" H 20950 13300 50  0000 C CNN
F 1 "SW_DIP_x01" H 20950 13000 50  0000 C CNN
F 2 "" H 20950 13150 50  0001 C CNN
F 3 "" H 20950 13150 50  0001 C CNN
	1    20950 13150
	1    0    0    -1  
$EndComp
Text Label 19250 11850 0    59   ~ 0
BUTTON2
$Comp
L R R12
U 1 1 5961F719
P 20500 11600
F 0 "R12" V 20580 11600 50  0000 C CNN
F 1 "47k" V 20400 11600 50  0000 C CNN
F 2 "Resistors_ThroughHole:R_Axial_DIN0207_L6.3mm_D2.5mm_P15.24mm_Horizontal" V 20430 11600 50  0001 C CNN
F 3 "" H 20500 11600 50  0001 C CNN
	1    20500 11600
	1    0    0    -1  
$EndComp
$Comp
L +3V3 #PWR35
U 1 1 5961F71F
P 20500 11400
F 0 "#PWR35" H 20500 11250 50  0001 C CNN
F 1 "+3V3" H 20500 11540 50  0000 C CNN
F 2 "" H 20500 11400 50  0001 C CNN
F 3 "" H 20500 11400 50  0001 C CNN
	1    20500 11400
	1    0    0    -1  
$EndComp
$Comp
L GND #PWR36
U 1 1 5961F726
P 21300 11900
F 0 "#PWR36" H 21300 11650 50  0001 C CNN
F 1 "GND" H 21300 11750 50  0000 C CNN
F 2 "" H 21300 11900 50  0001 C CNN
F 3 "" H 21300 11900 50  0001 C CNN
	1    21300 11900
	1    0    0    -1  
$EndComp
$Comp
L SW_DIP_x01 SW1
U 1 1 5961FBC9
P 18550 13150
F 0 "SW1" H 18550 13300 50  0000 C CNN
F 1 "SW_DIP_x01" H 18550 13000 50  0000 C CNN
F 2 "" H 18550 13150 50  0001 C CNN
F 3 "" H 18550 13150 50  0001 C CNN
	1    18550 13150
	1    0    0    -1  
$EndComp
Text Label 16850 11850 0    59   ~ 0
BUTTON1
$Comp
L R R10
U 1 1 5961FBD0
P 18150 11600
F 0 "R10" V 18230 11600 50  0000 C CNN
F 1 "47k" V 18050 11600 50  0000 C CNN
F 2 "Resistors_ThroughHole:R_Axial_DIN0207_L6.3mm_D2.5mm_P15.24mm_Horizontal" V 18080 11600 50  0001 C CNN
F 3 "" H 18150 11600 50  0001 C CNN
	1    18150 11600
	1    0    0    -1  
$EndComp
$Comp
L +3V3 #PWR30
U 1 1 5961FBD6
P 18150 11400
F 0 "#PWR30" H 18150 11250 50  0001 C CNN
F 1 "+3V3" H 18150 11540 50  0000 C CNN
F 2 "" H 18150 11400 50  0001 C CNN
F 3 "" H 18150 11400 50  0001 C CNN
	1    18150 11400
	1    0    0    -1  
$EndComp
$Comp
L GND #PWR31
U 1 1 5961FBDD
P 18950 11900
F 0 "#PWR31" H 18950 11650 50  0001 C CNN
F 1 "GND" H 18950 11750 50  0000 C CNN
F 2 "" H 18950 11900 50  0001 C CNN
F 3 "" H 18950 11900 50  0001 C CNN
	1    18950 11900
	1    0    0    -1  
$EndComp
$Comp
L +5V #PWR1
U 1 1 5962177F
P 3650 4700
F 0 "#PWR1" H 3650 4550 50  0001 C CNN
F 1 "+5V" H 3650 4840 50  0000 C CNN
F 2 "" H 3650 4700 50  0001 C CNN
F 3 "" H 3650 4700 50  0001 C CNN
	1    3650 4700
	1    0    0    -1  
$EndComp
$Comp
L R R7
U 1 1 596229C6
P 15300 9500
F 0 "R7" V 15380 9500 50  0000 C CNN
F 1 "10k" V 15200 9500 50  0000 C CNN
F 2 "Resistors_ThroughHole:R_Axial_DIN0207_L6.3mm_D2.5mm_P15.24mm_Horizontal" V 15230 9500 50  0001 C CNN
F 3 "" H 15300 9500 50  0001 C CNN
	1    15300 9500
	1    0    0    -1  
$EndComp
$Comp
L R R8
U 1 1 596229D3
P 16050 9500
F 0 "R8" V 16130 9500 50  0000 C CNN
F 1 "10k" V 15950 9500 50  0000 C CNN
F 2 "Resistors_ThroughHole:R_Axial_DIN0207_L6.3mm_D2.5mm_P15.24mm_Horizontal" V 15980 9500 50  0001 C CNN
F 3 "" H 16050 9500 50  0001 C CNN
	1    16050 9500
	1    0    0    -1  
$EndComp
$Comp
L +5V #PWR28
U 1 1 596229D9
P 16050 9200
F 0 "#PWR28" H 16050 9050 50  0001 C CNN
F 1 "+5V" H 16050 9340 50  0000 C CNN
F 2 "" H 16050 9200 50  0001 C CNN
F 3 "" H 16050 9200 50  0001 C CNN
	1    16050 9200
	1    0    0    -1  
$EndComp
$Comp
L +3V3 #PWR25
U 1 1 596229E0
P 15300 9200
F 0 "#PWR25" H 15300 9050 50  0001 C CNN
F 1 "+3V3" H 15300 9340 50  0000 C CNN
F 2 "" H 15300 9200 50  0001 C CNN
F 3 "" H 15300 9200 50  0001 C CNN
	1    15300 9200
	1    0    0    -1  
$EndComp
Text Label 16950 9800 2    60   ~ 0
LED_STRIP_DO_5V
$Comp
L SW_DIP_x01 NC1
U 1 1 59625912
P 15900 1550
F 0 "NC1" H 15900 1700 50  0000 C CNN
F 1 "SW_DIP_x01" H 15900 1400 50  0000 C CNN
F 2 "" H 15900 1550 50  0001 C CNN
F 3 "" H 15900 1550 50  0001 C CNN
F 4 "alibaba" H 15900 1550 60  0001 C CNN "PN"
F 5 "NO FOOTPRINT" H 15900 1800 60  0000 C CNN "Comment"
	1    15900 1550
	1    0    0    -1  
$EndComp
$Comp
L +5V #PWR32
U 1 1 59629BB9
P 19000 9600
F 0 "#PWR32" H 19000 9450 50  0001 C CNN
F 1 "+5V" H 19000 9740 50  0000 C CNN
F 2 "" H 19000 9600 50  0001 C CNN
F 3 "" H 19000 9600 50  0001 C CNN
	1    19000 9600
	1    0    0    -1  
$EndComp
$Comp
L GND #PWR33
U 1 1 5962A3E4
P 19000 10000
F 0 "#PWR33" H 19000 9750 50  0001 C CNN
F 1 "GND" H 19000 9850 50  0000 C CNN
F 2 "" H 19000 10000 50  0001 C CNN
F 3 "" H 19000 10000 50  0001 C CNN
	1    19000 10000
	1    0    0    -1  
$EndComp
Text Notes 20350 9800 0    118  ~ 24
LED STRIP - WS2812B
Text Notes 20800 9950 0    59   ~ 0
TODO: check connector on strip\nheat shrink plus connector
$Comp
L LED-RESCUE-InfinityTable NC2
U 1 1 5962D7CD
P 16650 1550
F 0 "NC2" H 16650 1650 50  0000 C CNN
F 1 "LED" H 16650 1450 50  0000 C CNN
F 2 "" H 16650 1550 50  0001 C CNN
F 3 "" H 16650 1550 50  0001 C CNN
F 4 "alibaba" H 16650 1550 60  0001 C CNN "PN"
F 5 "NO FOOTPRINT" H 16400 1350 60  0000 C CNN "Comment"
	1    16650 1550
	-1   0    0    1   
$EndComp
$Comp
L +3V3 #PWR14
U 1 1 5962F15E
P 8200 2350
F 0 "#PWR14" H 8200 2200 50  0001 C CNN
F 1 "+3V3" H 8200 2490 50  0000 C CNN
F 2 "" H 8200 2350 50  0001 C CNN
F 3 "" H 8200 2350 50  0001 C CNN
	1    8200 2350
	1    0    0    -1  
$EndComp
$Comp
L GND #PWR15
U 1 1 5962F1E4
P 8200 2900
F 0 "#PWR15" H 8200 2650 50  0001 C CNN
F 1 "GND" H 8200 2750 50  0000 C CNN
F 2 "" H 8200 2900 50  0001 C CNN
F 3 "" H 8200 2900 50  0001 C CNN
	1    8200 2900
	1    0    0    -1  
$EndComp
$Comp
L +3V3 #PWR17
U 1 1 5962F337
P 8650 3900
F 0 "#PWR17" H 8650 3750 50  0001 C CNN
F 1 "+3V3" H 8650 4040 50  0000 C CNN
F 2 "" H 8650 3900 50  0001 C CNN
F 3 "" H 8650 3900 50  0001 C CNN
	1    8650 3900
	1    0    0    -1  
$EndComp
$Comp
L C C12
U 1 1 596309E0
P 17450 12100
F 0 "C12" H 17475 12200 50  0000 L CNN
F 1 "100n" H 17475 12000 50  0000 L CNN
F 2 "Capacitors_ThroughHole:C_Rect_L7.0mm_W2.5mm_P5.00mm" H 17488 11950 50  0001 C CNN
F 3 "" H 17450 12100 50  0001 C CNN
F 4 "K104K10X7RF5UH5" H 16800 12100 60  0000 C CNN "PN"
	1    17450 12100
	1    0    0    -1  
$EndComp
$Comp
L R R9
U 1 1 59631220
P 17700 11850
F 0 "R9" V 17780 11850 50  0000 C CNN
F 1 "10k" V 17600 11850 50  0000 C CNN
F 2 "Resistors_ThroughHole:R_Axial_DIN0207_L6.3mm_D2.5mm_P15.24mm_Horizontal" V 17630 11850 50  0001 C CNN
F 3 "" H 17700 11850 50  0001 C CNN
	1    17700 11850
	0    -1   -1   0   
$EndComp
$Comp
L GND #PWR29
U 1 1 596315B5
P 17450 12300
F 0 "#PWR29" H 17450 12050 50  0001 C CNN
F 1 "GND" H 17450 12150 50  0000 C CNN
F 2 "" H 17450 12300 50  0001 C CNN
F 3 "" H 17450 12300 50  0001 C CNN
	1    17450 12300
	1    0    0    -1  
$EndComp
$Comp
L R R11
U 1 1 59631CD6
P 20000 11850
F 0 "R11" V 20080 11850 50  0000 C CNN
F 1 "10k" V 19900 11850 50  0000 C CNN
F 2 "Resistors_ThroughHole:R_Axial_DIN0207_L6.3mm_D2.5mm_P15.24mm_Horizontal" V 19930 11850 50  0001 C CNN
F 3 "" H 20000 11850 50  0001 C CNN
	1    20000 11850
	0    -1   -1   0   
$EndComp
$Comp
L GND #PWR34
U 1 1 596321F4
P 19700 12350
F 0 "#PWR34" H 19700 12100 50  0001 C CNN
F 1 "GND" H 19700 12200 50  0000 C CNN
F 2 "" H 19700 12350 50  0001 C CNN
F 3 "" H 19700 12350 50  0001 C CNN
	1    19700 12350
	1    0    0    -1  
$EndComp
$Comp
L CONN_01X03 J7
U 1 1 59D94E8F
P 19400 9800
F 0 "J7" H 19400 10000 50  0000 C CNN
F 1 "CONN_01X03" V 19500 9800 50  0000 C CNN
F 2 "WowWeeFootprints:OQ0354500000G" H 19400 9800 50  0001 C CNN
F 3 "" H 19400 9800 50  0000 C CNN
F 4 "OQ0354500000G" H 19300 10350 60  0000 C CNN "PN"
	1    19400 9800
	1    0    0    -1  
$EndComp
Text Label 14550 9800 0    60   ~ 0
LED_STRIP_DO
Text Label 18250 9800 0    60   ~ 0
LED_STRIP_DO_5V
$Comp
L GND #PWR24
U 1 1 59DAB524
P 12000 4000
F 0 "#PWR24" H 12000 3750 50  0001 C CNN
F 1 "GND" H 12000 3850 50  0000 C CNN
F 2 "" H 12000 4000 50  0001 C CNN
F 3 "" H 12000 4000 50  0001 C CNN
	1    12000 4000
	0    -1   -1   0   
$EndComp
$Comp
L SPEAKER SP1
U 1 1 59DAE020
P 16200 7350
F 0 "SP1" H 16100 7600 50  0000 C CNN
F 1 "BUZZER" H 16100 7100 50  0000 C CNN
F 2 "WowWeeFootprints:AT-1224-TWT-5V-2-R" H 16200 7350 50  0001 C CNN
F 3 "" H 16200 7350 50  0000 C CNN
F 4 "AT-1224-TWT-5V-2-R" H 17050 7350 60  0000 C CNN "PN"
	1    16200 7350
	1    0    0    -1  
$EndComp
$Comp
L Q_NMOS_SGD Q1
U 1 1 59DAF4BA
P 15650 7850
F 0 "Q1" H 15850 7900 50  0000 L CNN
F 1 "Q_NMOS_SGD" H 15850 7800 50  0000 L CNN
F 2 "TO_SOT_Packages_THT:TO-92_Inline_Narrow_Oval" H 15850 7950 50  0001 C CNN
F 3 "" H 15650 7850 50  0001 C CNN
F 4 "VN2106N3-G" H 16150 7650 60  0000 C CNN "PN"
F 5 "TO92-3" H 15650 7850 60  0001 C CNN "Comment"
	1    15650 7850
	1    0    0    -1  
$EndComp
$Comp
L +5V #PWR26
U 1 1 59DAFCA3
P 15750 7100
F 0 "#PWR26" H 15750 6950 50  0001 C CNN
F 1 "+5V" H 15750 7240 50  0000 C CNN
F 2 "" H 15750 7100 50  0001 C CNN
F 3 "" H 15750 7100 50  0001 C CNN
	1    15750 7100
	1    0    0    -1  
$EndComp
$Comp
L D D1
U 1 1 59DB0064
P 15550 7350
F 0 "D1" H 15550 7450 50  0000 C CNN
F 1 "D" H 15550 7250 50  0000 C CNN
F 2 "Diodes_ThroughHole:D_DO-41_SOD81_P10.16mm_Horizontal" H 15550 7350 50  0001 C CNN
F 3 "" H 15550 7350 50  0000 C CNN
F 4 "SB140TA" H 15550 7150 60  0000 C CNN "PN"
	1    15550 7350
	0    1    1    0   
$EndComp
$Comp
L GND #PWR27
U 1 1 59DB23BB
P 15750 8200
F 0 "#PWR27" H 15750 7950 50  0001 C CNN
F 1 "GND" H 15750 8050 50  0000 C CNN
F 2 "" H 15750 8200 50  0001 C CNN
F 3 "" H 15750 8200 50  0001 C CNN
	1    15750 8200
	1    0    0    -1  
$EndComp
$Comp
L CONN_01X02 J6
U 1 1 59DB6CF2
P 18550 12100
F 0 "J6" H 18550 12250 50  0000 C CNN
F 1 "CONN_01X02" V 18650 12100 50  0000 C CNN
F 2 "WowWeeFootprints:OQ0212500000G" H 18550 12100 50  0001 C CNN
F 3 "" H 18550 12100 50  0000 C CNN
F 4 "OQ0212500000G" V 18750 11700 60  0000 C CNN "PN"
	1    18550 12100
	0    1    1    0   
$EndComp
$Comp
L CONN_01X02 P4
U 1 1 59DB7584
P 18550 12550
F 0 "P4" H 18550 12700 50  0000 C CNN
F 1 "CONN_01X02" V 18650 12550 50  0000 C CNN
F 2 "" H 18550 12550 50  0001 C CNN
F 3 "" H 18550 12550 50  0000 C CNN
F 4 "TJ0211530000G" V 18600 13050 60  0000 C CNN "PN"
F 5 "NO FOOTPRINT" V 18500 13100 60  0000 C CNN "Comment"
	1    18550 12550
	0    1    -1   0   
$EndComp
$Comp
L CONN_01X03 NC4
U 1 1 59DBA743
P 19950 9800
F 0 "NC4" H 19950 10000 50  0000 C CNN
F 1 "CONN_01X03" V 20050 9800 50  0000 C CNN
F 2 "" H 19950 9800 50  0001 C CNN
F 3 "" H 19950 9800 50  0000 C CNN
F 4 "20020007-H031B01LF" H 19750 10200 60  0000 C CNN "PN"
F 5 "NO FOOTPRINT" H 19700 10350 60  0000 C CNN "Comment"
	1    19950 9800
	-1   0    0    -1  
$EndComp
$Comp
L TEST_1P W1
U 1 1 59EEFB23
P 9150 6150
F 0 "W1" H 9150 6420 50  0000 C CNN
F 1 "TEST_1P" H 9150 6350 50  0000 C CNN
F 2 "WowWeeFootprints:Measurement_Point_Round-SMD-Pad_mini" H 9350 6150 50  0001 C CNN
F 3 "" H 9350 6150 50  0000 C CNN
	1    9150 6150
	-1   0    0    1   
$EndComp
Text Label 9150 6050 0    59   ~ 0
MIC_OUT
Text Label 13150 4600 2    60   ~ 0
BUZZER_PWM
Text Label 14750 7850 0    60   ~ 0
BUZZER_PWM
$Comp
L MCP1700T-3002E/TT U1
U 1 1 59EFC538
P 4750 4850
F 0 "U1" H 4850 4650 50  0000 C CNN
F 1 "MCP1700-3302E/TO-ND" H 4750 5150 50  0000 C CNN
F 2 "TO_SOT_Packages_THT:TO-92_Inline_Narrow_Oval" H 4750 4950 50  0001 C CNN
F 3 "https://www.digikey.ca/product-detail/en/microchip-technology/MCP1700-3302E-TO/MCP1700-3302E-TO-ND/652680" H 4750 4950 50  0001 C CNN
F 4 "MCP1700-3302E/TO-ND" H 4750 4850 60  0001 C CNN "PN"
	1    4750 4850
	1    0    0    -1  
$EndComp
$Comp
L CP C1
U 1 1 59EFC544
P 4200 4950
F 0 "C1" H 4225 5050 50  0000 L CNN
F 1 "1u" H 4225 4850 50  0000 L CNN
F 2 "Capacitors_ThroughHole:CP_Radial_D5.0mm_P2.00mm" H 4238 4800 50  0001 C CNN
F 3 "" H 4200 4950 50  0001 C CNN
F 4 "860020672005" H 3700 4950 60  0000 C CNN "PN"
	1    4200 4950
	1    0    0    -1  
$EndComp
$Comp
L GND #PWR2
U 1 1 59EFC54A
P 4750 5750
F 0 "#PWR2" H 4750 5500 50  0001 C CNN
F 1 "GND" H 4750 5600 50  0000 C CNN
F 2 "" H 4750 5750 50  0001 C CNN
F 3 "" H 4750 5750 50  0001 C CNN
	1    4750 5750
	1    0    0    -1  
$EndComp
$Comp
L +3V3 #PWR7
U 1 1 59EFC550
P 5450 4700
F 0 "#PWR7" H 5450 4550 50  0001 C CNN
F 1 "+3V3" H 5450 4840 50  0000 C CNN
F 2 "" H 5450 4700 50  0001 C CNN
F 3 "" H 5450 4700 50  0001 C CNN
	1    5450 4700
	1    0    0    -1  
$EndComp
Text Notes 12250 2950 0    59   ~ 0
DC BLOCK INPUT (11mm length 5.5 mm Outer diam , 2.1 Inner diam)
Text GLabel 21400 3950 3    59   Input ~ 0
GND_POW
Text GLabel 19950 3950 3    59   Input ~ 0
GND_POW
Text GLabel 18750 3950 3    59   Input ~ 0
GND_POW
Text GLabel 16550 4450 3    59   Input ~ 0
GND_POW
Text Notes 600  4800 0    59   ~ 0
INPUT POWER FROM POWER BOARD
Text Label 22100 4100 3    60   ~ 0
POT3_POW
Text Label 22000 4100 3    60   ~ 0
POT2_POW
Text Label 21900 4100 3    60   ~ 0
POT1_POW
Text Label 20050 3250 0    59   ~ 0
3V3A_POW
Text Label 21800 4100 3    59   ~ 0
3V3A_POW
Text Label 21900 6050 1    60   ~ 0
POT1
Text Label 22000 6050 1    60   ~ 0
POT2
Text Label 22100 6050 1    60   ~ 0
POT3
Text Notes 14500 3450 0    59   ~ 0
POWER JACK\n(BARREL)
$Comp
L CONN_01X02 J11
U 1 1 59F469CA
P 15250 3400
F 0 "J11" H 15250 3550 50  0000 C CNN
F 1 "BARREL" V 15350 3400 50  0000 C CNN
F 2 "WowWeeFootprints:PJ-037AH" H 15750 3200 50  0000 C CNN
F 3 "" H 15250 3400 50  0000 C CNN
F 4 "PJ-037AH" H 15250 3400 60  0001 C CNN "PN"
	1    15250 3400
	-1   0    0    -1  
$EndComp
$Comp
L CONN_01X02 J5
U 1 1 59F47BC1
P 17850 3400
F 0 "J5" H 17850 3550 50  0000 C CNN
F 1 "CONN_01X02" H 17650 3200 50  0000 C CNN
F 2 "WowWeeFootprints:OQ0254500000Y" H 17850 3200 50  0001 C CNN
F 3 "" H 17850 3400 50  0000 C CNN
F 4 "OQ0254500000Y" H 17600 3100 60  0000 C CNN "PN"
	1    17850 3400
	1    0    0    -1  
$EndComp
Text Notes 17450 2950 0    59   ~ 0
OUTPUT POWER TO MAINBOARD
$Comp
L CONN_01X02 J8
U 1 1 59FA0F2D
P 20950 12100
F 0 "J8" H 20950 12250 50  0000 C CNN
F 1 "CONN_01X02" V 21050 12100 50  0000 C CNN
F 2 "WowWeeFootprints:OQ0212500000G" H 20950 12100 50  0001 C CNN
F 3 "" H 20950 12100 50  0000 C CNN
F 4 "OQ0212500000G" V 21150 11700 60  0000 C CNN "PN"
	1    20950 12100
	0    1    1    0   
$EndComp
$Comp
L CONN_01X02 P5
U 1 1 59FA1618
P 20950 12550
F 0 "P5" H 20950 12700 50  0000 C CNN
F 1 "CONN_01X02" V 21050 12550 50  0000 C CNN
F 2 "" H 20950 12550 50  0001 C CNN
F 3 "" H 20950 12550 50  0000 C CNN
F 4 "TJ0211530000G" V 21000 13050 60  0000 C CNN "PN"
F 5 "NO FOOTPRINT" V 20900 13100 60  0000 C CNN "Comment"
	1    20950 12550
	0    1    -1   0   
$EndComp
$Comp
L CONN_01X04 P3
U 1 1 59FA602B
P 16350 2450
F 0 "P3" H 16350 2700 50  0000 C CNN
F 1 "CONN_01X04" V 16450 2450 50  0000 C CNN
F 2 "" H 16350 2450 50  0001 C CNN
F 3 "" H 16350 2450 50  0000 C CNN
F 4 "20020006-G041B01LF" V 16350 1600 60  0000 C CNN "PN"
F 5 "NO FOOTPRINT" V 16200 1600 60  0000 C CNN "Comment"
	1    16350 2450
	0    -1   1    0   
$EndComp
$Comp
L CONN_01X04 J4
U 1 1 59FA7327
P 16350 2800
F 0 "J4" H 16350 3050 50  0000 C CNN
F 1 "CONN_01X04" V 16450 2800 50  0000 C CNN
F 2 "WowWeeFootprints:20020107-G041A01LF" H 16350 2800 50  0001 C CNN
F 3 "" H 16350 2800 50  0000 C CNN
F 4 "20020107-G041A01LF" V 16350 2000 60  0000 C CNN "PN"
	1    16350 2800
	0    -1   -1   0   
$EndComp
Text GLabel 16550 3150 2    59   Input ~ 0
GND_POW
$Comp
L DF13-4P-1.25DSA J10
U 1 1 59FB39A9
P 22400 5700
F 0 "J10" H 22200 5550 60  0000 C CNN
F 1 "DF13-4P-1.25DSA" H 22200 5650 60  0001 C CNN
F 2 "WowWeeFootprints:DF13-4P-1.25DSA" H 22400 5700 60  0001 C CNN
F 3 "" H 22400 5700 60  0001 C CNN
F 4 "DF13-4P-1.25DSA" H 22400 5700 60  0001 C CNN "PN"
	1    22400 5700
	0    1    1    0   
$EndComp
$Comp
L DF13-4P-1.25DSA J9
U 1 1 59FB5A06
P 22400 4700
F 0 "J9" H 22200 4550 60  0000 C CNN
F 1 "DF13-4P-1.25DSA" H 22200 4650 60  0001 C CNN
F 2 "WowWeeFootprints:DF13-4P-1.25DSA" V 22050 3050 60  0000 C CNN
F 3 "" H 22400 4700 60  0001 C CNN
F 4 "DF13-4P-1.25DSA" V 22200 3550 60  0000 C CNN "PN"
	1    22400 4700
	0    1    -1   0   
$EndComp
$Comp
L CONN_01X02 J1
U 1 1 59FC123B
P 1850 5100
F 0 "J1" H 1850 5250 50  0000 C CNN
F 1 "CONN_01X02" H 1850 4900 50  0000 C CNN
F 2 "WowWeeFootprints:OQ0254500000Y" H 1850 4900 50  0001 C CNN
F 3 "" H 1850 5100 50  0000 C CNN
F 4 "OQ0254500000Y" H 2050 4800 60  0000 C CNN "PN"
	1    1850 5100
	-1   0    0    -1  
$EndComp
$Comp
L CONN_01X02 NC3
U 1 1 59FC5A1E
P 18100 3400
F 0 "NC3" H 18100 3550 50  0000 C CNN
F 1 "CONN_01X02" H 17850 3200 50  0000 C CNN
F 2 "" H 18100 3200 50  0001 C CNN
F 3 "" H 18100 3400 50  0000 C CNN
F 4 "TJ0251530000G" H 17750 3100 60  0000 C CNN "PN"
F 5 "NO_FOOTPRINT" H 17650 3000 60  0000 C CNN "Comment"
	1    18100 3400
	-1   0    0    -1  
$EndComp
$Comp
L CONN_01X02 P1
U 1 1 59FC70DB
P 1500 5100
F 0 "P1" H 1500 5250 50  0000 C CNN
F 1 "CONN_01X02" H 900 5200 50  0000 C CNN
F 2 "" H 1500 4900 50  0001 C CNN
F 3 "" H 1500 5100 50  0000 C CNN
F 4 "TJ0251530000G" H 900 5100 60  0000 C CNN "PN"
F 5 "NO_FOOTPRINT" H 900 5000 60  0000 C CNN "Comment"
	1    1500 5100
	1    0    0    -1  
$EndComp
Text Notes 16600 7800 0    59   ~ 0
40ma
$Comp
L Q_NMOS_SGD Q2
U 1 1 59FCEE0D
P 15650 9700
F 0 "Q2" H 15850 9750 50  0000 L CNN
F 1 "Q_NMOS_SGD" V 16000 9700 50  0000 L CNN
F 2 "TO_SOT_Packages_THT:TO-92_Inline_Narrow_Oval" H 15850 9800 50  0001 C CNN
F 3 "" H 15650 9700 50  0001 C CNN
F 4 "VN2106N3-G" V 16100 9950 60  0000 C CNN "PN"
F 5 "TO92-3" H 15650 9700 60  0001 C CNN "Comment"
	1    15650 9700
	0    1    1    0   
$EndComp
Text GLabel 8800 7300 1    59   Input ~ 0
3V3A
Text Notes 12600 8200 0    59   ~ 0
AGC?
Text GLabel 21800 6100 3    59   Input ~ 0
3V3A
Text GLabel 7150 5000 1    59   Input ~ 0
3V3A
$Comp
L Ferrite_Bead L1
U 1 1 5960F8F7
P 6800 5100
F 0 "L1" V 6650 5125 50  0000 C CNN
F 1 "Ferrite_Bead" V 6550 5100 50  0000 C CNN
F 2 "Choke_Axial_ThroughHole:Choke_Horizontal_RM10mm" V 6730 5100 50  0001 C CNN
F 3 "" H 6800 5100 50  0001 C CNN
F 4 "28L0138-50R-10" V 6850 4500 60  0000 C CNN "PN"
	1    6800 5100
	0    1    1    0   
$EndComp
$Comp
L CP C2
U 1 1 59FE43A8
P 5250 4950
F 0 "C2" H 5275 5050 50  0000 L CNN
F 1 "1u" H 5275 4850 50  0000 L CNN
F 2 "Capacitors_ThroughHole:CP_Radial_D5.0mm_P2.00mm" H 5288 4800 50  0001 C CNN
F 3 "" H 5250 4950 50  0001 C CNN
F 4 "860020672005" H 5800 4950 60  0000 C CNN "PN"
	1    5250 4950
	1    0    0    -1  
$EndComp
$Comp
L CP C7
U 1 1 59FE4A58
P 8000 5650
F 0 "C7" H 8025 5750 50  0000 L CNN
F 1 "1u" H 8025 5550 50  0000 L CNN
F 2 "Capacitors_ThroughHole:CP_Radial_D5.0mm_P2.00mm" H 8038 5500 50  0001 C CNN
F 3 "" H 8000 5650 50  0001 C CNN
F 4 "860020672005" H 6700 5650 60  0000 C CNN "PN"
	1    8000 5650
	1    0    0    -1  
$EndComp
$Comp
L CP C3
U 1 1 59FE4FDD
P 7150 5650
F 0 "C3" H 7175 5750 50  0000 L CNN
F 1 "1u" H 7175 5550 50  0000 L CNN
F 2 "Capacitors_ThroughHole:CP_Radial_D5.0mm_P2.00mm" H 7188 5500 50  0001 C CNN
F 3 "" H 7150 5650 50  0001 C CNN
F 4 "860020672005" H 6700 5550 60  0000 C CNN "PN"
	1    7150 5650
	1    0    0    -1  
$EndComp
$Comp
L CP C4
U 1 1 59FE50A3
P 7500 5650
F 0 "C4" H 7525 5750 50  0000 L CNN
F 1 "1u" H 7525 5550 50  0000 L CNN
F 2 "Capacitors_ThroughHole:CP_Radial_D5.0mm_P2.00mm" H 7538 5500 50  0001 C CNN
F 3 "" H 7500 5650 50  0001 C CNN
F 4 "860020672005" H 6700 5450 60  0000 C CNN "PN"
	1    7500 5650
	1    0    0    -1  
$EndComp
$Comp
L CP C5
U 1 1 59FE519F
P 7750 5650
F 0 "C5" H 7775 5750 50  0000 L CNN
F 1 "1u" H 7775 5550 50  0000 L CNN
F 2 "Capacitors_ThroughHole:CP_Radial_D5.0mm_P2.00mm" H 7788 5500 50  0001 C CNN
F 3 "" H 7750 5650 50  0001 C CNN
F 4 "860020672005" H 6700 5750 60  0000 C CNN "PN"
	1    7750 5650
	1    0    0    -1  
$EndComp
$Comp
L CP C13
U 1 1 59FE9340
P 18300 4600
F 0 "C13" H 18325 4700 50  0000 L CNN
F 1 "1u" H 18325 4500 50  0000 L CNN
F 2 "Capacitors_ThroughHole:CP_Radial_D5.0mm_P2.00mm" H 18338 4450 50  0001 C CNN
F 3 "" H 18300 4600 50  0001 C CNN
F 4 "860020672005" H 17850 4500 60  0000 C CNN "PN"
	1    18300 4600
	1    0    0    -1  
$EndComp
Text Label 18250 4400 2    59   ~ 0
3V3A_POW
Text GLabel 18350 4900 2    59   Input ~ 0
GND_POW
$Comp
L CP C8
U 1 1 59FEDBEA
P 8350 2700
F 0 "C8" H 8375 2800 50  0000 L CNN
F 1 "1u" H 8375 2600 50  0000 L CNN
F 2 "Capacitors_ThroughHole:CP_Radial_D5.0mm_P2.00mm" H 8388 2550 50  0001 C CNN
F 3 "" H 8350 2700 50  0001 C CNN
F 4 "860020672005" H 8900 2700 60  0000 C CNN "PN"
	1    8350 2700
	1    0    0    -1  
$EndComp
$Comp
L C C10
U 1 1 59FEF9F7
P 10150 9650
F 0 "C10" V 10300 9600 50  0000 L CNN
F 1 "6.8u" V 10000 9600 50  0000 L CNN
F 2 "Capacitors_ThroughHole:C_Rect_L7.0mm_W2.5mm_P5.00mm" H 10188 9500 50  0001 C CNN
F 3 "" H 10150 9650 50  0001 C CNN
F 4 "FK28X5R0J685K" V 9900 9650 60  0000 C CNN "PN"
	1    10150 9650
	-1   0    0    1   
$EndComp
$Comp
L C C14
U 1 1 59FF3214
P 19700 12100
F 0 "C14" H 19725 12200 50  0000 L CNN
F 1 "100n" H 19725 12000 50  0000 L CNN
F 2 "Capacitors_ThroughHole:C_Rect_L7.0mm_W2.5mm_P5.00mm" H 19738 11950 50  0001 C CNN
F 3 "" H 19700 12100 50  0001 C CNN
F 4 "K104K10X7RF5UH5" H 20250 12100 60  0000 C CNN "PN"
	1    19700 12100
	1    0    0    -1  
$EndComp
$Comp
L C C6
U 1 1 59FF870B
P 8000 2700
F 0 "C6" H 8025 2800 50  0000 L CNN
F 1 "100n" H 8025 2600 50  0000 L CNN
F 2 "Capacitors_ThroughHole:C_Rect_L7.0mm_W2.5mm_P5.00mm" H 8038 2550 50  0001 C CNN
F 3 "" H 8000 2700 50  0001 C CNN
F 4 "K104K10X7RF5UH5" H 7350 2700 60  0000 C CNN "PN"
	1    8000 2700
	1    0    0    -1  
$EndComp
$Comp
L R R1
U 1 1 5A000498
P 6800 5400
F 0 "R1" V 6880 5400 50  0000 C CNN
F 1 "10" V 6700 5400 50  0000 C CNN
F 2 "Resistors_ThroughHole:R_Axial_DIN0207_L6.3mm_D2.5mm_P15.24mm_Horizontal" V 6730 5400 50  0001 C CNN
F 3 "" H 6800 5400 50  0001 C CNN
	1    6800 5400
	0    1    1    0   
$EndComp
Wire Wire Line
	8750 4500 7300 4500
Wire Wire Line
	9950 2250 9950 3350
Wire Wire Line
	9200 2250 9950 2250
Wire Wire Line
	9200 2250 9200 2300
Wire Wire Line
	9650 3350 9650 2250
Connection ~ 9650 2250
Wire Wire Line
	8750 5200 7300 5200
Wire Wire Line
	8750 5300 7300 5300
Wire Wire Line
	10150 5950 10150 6950
Wire Wire Line
	11850 4400 13250 4400
Wire Wire Line
	11850 4500 13250 4500
Wire Wire Line
	9550 3350 9550 3200
Wire Wire Line
	9650 5950 9650 6050
Wire Wire Line
	10950 5950 10950 6050
Wire Wire Line
	9750 5950 9750 6000
Wire Wire Line
	9750 6000 11400 6000
Wire Wire Line
	11050 5950 11050 6000
Connection ~ 11050 6000
Wire Wire Line
	6950 5100 8750 5100
Wire Wire Line
	8750 5000 8400 5000
Wire Wire Line
	8400 5000 8400 5950
Wire Wire Line
	7300 4000 7300 3650
Wire Wire Line
	7300 4500 7300 4300
Wire Wire Line
	7300 4600 8750 4600
Wire Wire Line
	7300 4700 8750 4700
Wire Wire Line
	8000 5500 8000 4800
Connection ~ 8000 4800
Wire Wire Line
	7500 5500 7500 4600
Connection ~ 7500 4600
Wire Wire Line
	7300 4800 8750 4800
Wire Wire Line
	7750 5500 7750 4700
Connection ~ 7750 4700
Wire Wire Line
	7150 5000 7150 5500
Connection ~ 7150 5100
Wire Wire Line
	7150 5950 7150 5800
Wire Wire Line
	7500 5800 7500 5950
Wire Wire Line
	7750 5950 7750 5800
Wire Wire Line
	8000 5800 8000 5950
Wire Wire Line
	11850 3900 13250 3900
Wire Wire Line
	11050 3350 11050 2350
Wire Wire Line
	4650 7950 4850 7950
Wire Wire Line
	4850 7950 4850 7750
Wire Wire Line
	4650 8150 4850 8150
Wire Wire Line
	4850 8150 4850 8500
Wire Wire Line
	4650 8050 5500 8050
Wire Wire Line
	4650 8250 5500 8250
Wire Wire Line
	4650 8350 5500 8350
Wire Wire Line
	4650 9150 4800 9150
Wire Wire Line
	4800 9150 4800 9100
Wire Wire Line
	4650 9450 4800 9450
Wire Wire Line
	4800 9450 4800 9500
Wire Wire Line
	4650 9250 5450 9250
Wire Wire Line
	4650 9350 5450 9350
Wire Wire Line
	18750 3250 18750 3500
Wire Wire Line
	19950 3250 19950 3500
Wire Wire Line
	19950 3800 19950 3950
Wire Wire Line
	21400 3250 21400 3500
Wire Wire Line
	21400 3800 21400 3950
Wire Wire Line
	18900 3650 19450 3650
Wire Wire Line
	20100 3650 20700 3650
Wire Wire Line
	21550 3650 22200 3650
Wire Wire Line
	11500 7750 11350 7750
Wire Wire Line
	11350 7750 11350 8100
Wire Wire Line
	11350 8100 11500 8100
Wire Wire Line
	11950 8100 11800 8100
Wire Wire Line
	11950 7750 11950 8100
Wire Wire Line
	11950 7750 11800 7750
Wire Wire Line
	9650 9350 9650 9500
Wire Wire Line
	9650 9050 9650 8850
Wire Wire Line
	9650 9900 9650 9800
Wire Wire Line
	8800 9900 10150 9900
Wire Wire Line
	10150 9900 10150 9800
Connection ~ 9650 9900
Wire Wire Line
	9300 10000 9300 9900
Connection ~ 9300 9900
Wire Wire Line
	9650 9450 10150 9450
Wire Wire Line
	10150 8950 10150 9500
Connection ~ 9650 9450
Wire Wire Line
	10150 8950 11100 8950
Connection ~ 10150 9450
Wire Notes Line
	11100 8450 11100 9150
Wire Notes Line
	11100 8450 12050 8800
Wire Notes Line
	12050 8800 11100 9150
Wire Wire Line
	10150 8700 11100 8700
Wire Wire Line
	10150 7950 10150 8700
Wire Wire Line
	10150 7950 11350 7950
Connection ~ 11350 7950
Wire Wire Line
	11950 7950 12250 7950
Wire Wire Line
	12250 7950 12250 8800
Wire Wire Line
	12250 8800 12050 8800
Connection ~ 11950 7950
Wire Wire Line
	8800 7850 8800 8500
Wire Wire Line
	8800 7550 8800 7300
Wire Wire Line
	9400 8250 8800 8250
Connection ~ 8800 8250
Wire Wire Line
	9700 8250 10150 8250
Connection ~ 10150 8250
Wire Wire Line
	11850 5100 12650 5100
Wire Wire Line
	11850 5200 12650 5200
Wire Wire Line
	21000 11850 21300 11850
Wire Wire Line
	21300 11850 21300 11900
Wire Wire Line
	20500 11450 20500 11400
Wire Wire Line
	20500 11750 20500 11850
Connection ~ 20500 11850
Wire Wire Line
	17850 11850 18500 11850
Wire Wire Line
	18600 11850 18950 11850
Wire Wire Line
	18950 11850 18950 11900
Wire Wire Line
	18150 11450 18150 11400
Wire Wire Line
	18150 11750 18150 11850
Connection ~ 18150 11850
Wire Wire Line
	14500 9800 15450 9800
Wire Wire Line
	15300 9800 15300 9650
Wire Wire Line
	15300 9200 15300 9350
Wire Wire Line
	15300 9250 15650 9250
Wire Wire Line
	15650 9250 15650 9500
Wire Wire Line
	15850 9800 17000 9800
Wire Wire Line
	16050 9800 16050 9650
Wire Wire Line
	16050 9350 16050 9200
Connection ~ 15300 9250
Connection ~ 15300 9800
Connection ~ 16050 9800
Wire Wire Line
	15450 3350 16200 3350
Wire Wire Line
	15500 3450 15500 4350
Wire Wire Line
	8750 3900 8650 3900
Wire Wire Line
	8200 2350 8200 2450
Wire Wire Line
	8000 2450 8350 2450
Connection ~ 8200 2450
Wire Wire Line
	8000 2900 8350 2900
Wire Wire Line
	8000 2900 8000 2850
Connection ~ 8200 2900
Wire Wire Line
	8350 2450 8350 2550
Wire Wire Line
	8000 2550 8000 2450
Wire Wire Line
	8350 2900 8350 2850
Wire Wire Line
	16750 11850 17550 11850
Wire Wire Line
	17450 11850 17450 11950
Connection ~ 17450 11850
Wire Wire Line
	17450 12250 17450 12300
Wire Wire Line
	20150 11850 20900 11850
Wire Wire Line
	19200 11850 19850 11850
Wire Wire Line
	19700 12350 19700 12250
Wire Wire Line
	19700 11950 19700 11850
Connection ~ 19700 11850
Wire Wire Line
	19200 9700 19000 9700
Wire Wire Line
	19000 9700 19000 9600
Wire Wire Line
	19200 9900 19000 9900
Wire Wire Line
	19000 9900 19000 10000
Wire Wire Line
	18200 9800 19200 9800
Wire Wire Line
	11850 4000 12000 4000
Wire Wire Line
	15550 7200 15900 7200
Wire Wire Line
	15900 7200 15900 7250
Wire Wire Line
	15900 7500 15900 7450
Wire Wire Line
	15550 7500 15900 7500
Wire Wire Line
	15750 7100 15750 7200
Connection ~ 15750 7200
Wire Wire Line
	15750 7650 15750 7500
Connection ~ 15750 7500
Wire Wire Line
	15750 8050 15750 8200
Wire Wire Line
	15450 7850 14700 7850
Wire Wire Line
	18600 11900 18600 11850
Wire Wire Line
	18500 11850 18500 11900
Wire Wire Line
	18250 13150 18150 13150
Wire Wire Line
	18150 13150 18150 12800
Wire Wire Line
	18150 12800 18500 12800
Wire Wire Line
	18500 12800 18500 12750
Wire Wire Line
	18850 13150 18850 12800
Wire Wire Line
	18850 12800 18600 12800
Wire Wire Line
	18600 12800 18600 12750
Wire Wire Line
	20650 13150 20650 12900
Wire Wire Line
	20650 12900 20900 12900
Wire Wire Line
	20900 12900 20900 12750
Wire Wire Line
	21000 12750 21000 12900
Wire Wire Line
	21000 12900 21250 12900
Wire Wire Line
	21250 12900 21250 13150
Wire Wire Line
	20900 11850 20900 11900
Wire Wire Line
	21000 11900 21000 11850
Wire Wire Line
	9550 5950 9550 6050
Wire Wire Line
	9550 6050 9150 6050
Wire Wire Line
	9150 6050 9150 6150
Wire Wire Line
	11850 4600 13250 4600
Wire Wire Line
	4200 5750 4200 5100
Wire Wire Line
	2150 5750 5250 5750
Wire Wire Line
	4750 5750 4750 5050
Wire Wire Line
	5250 5750 5250 5100
Connection ~ 4750 5750
Wire Wire Line
	4200 4750 4200 4800
Wire Wire Line
	5050 4750 5450 4750
Wire Wire Line
	5250 4750 5250 4800
Connection ~ 4200 4750
Wire Wire Line
	5450 4750 5450 4700
Connection ~ 5250 4750
Connection ~ 4200 5750
Wire Wire Line
	2150 4750 4450 4750
Wire Wire Line
	15500 4350 17300 4350
Connection ~ 16550 4350
Wire Wire Line
	17300 4350 17300 3450
Wire Wire Line
	18750 3950 18750 3800
Wire Wire Line
	2150 4750 2150 5050
Wire Notes Line
	14550 2600 14550 5150
Wire Notes Line
	22600 2600 22600 5150
Wire Notes Line
	22600 5150 14550 5150
Wire Wire Line
	3650 4700 3650 4750
Connection ~ 3650 4750
Wire Wire Line
	21800 4700 21800 4050
Wire Wire Line
	21900 4700 21900 4050
Wire Wire Line
	22000 4700 22000 4050
Wire Wire Line
	22100 4700 22100 4050
Wire Wire Line
	18750 3250 21400 3250
Connection ~ 19950 3250
Wire Wire Line
	21900 5700 21900 6100
Wire Wire Line
	22000 5700 22000 6100
Wire Wire Line
	22100 5700 22100 6100
Wire Wire Line
	21800 5700 21800 6100
Wire Wire Line
	15600 1550 15600 2250
Wire Wire Line
	16850 1550 16850 2250
Wire Wire Line
	16450 1550 16450 2100
Wire Wire Line
	2150 5050 2050 5050
Wire Wire Line
	2050 5150 2150 5150
Wire Wire Line
	2150 5150 2150 5750
Wire Wire Line
	15500 3450 15450 3450
Wire Wire Line
	17300 3450 17650 3450
Wire Wire Line
	15600 2250 16200 2250
Wire Wire Line
	16300 1550 16300 2250
Wire Wire Line
	16300 1550 16200 1550
Wire Wire Line
	16450 2100 16400 2100
Wire Wire Line
	16400 2100 16400 2250
Wire Wire Line
	16850 2250 16500 2250
Wire Wire Line
	16200 3350 16200 3000
Wire Wire Line
	16300 3000 16300 3350
Wire Wire Line
	16300 3350 17650 3350
Wire Wire Line
	16400 3000 16400 3150
Wire Wire Line
	16400 3150 16300 3150
Connection ~ 16300 3150
Wire Wire Line
	16550 4450 16550 4350
Wire Wire Line
	16500 3000 16500 3150
Wire Wire Line
	16500 3150 16550 3150
Wire Notes Line
	14550 2600 22600 2600
Wire Wire Line
	18350 4900 18300 4900
Wire Wire Line
	18300 4900 18300 4750
Wire Wire Line
	18300 4400 18300 4450
Wire Wire Line
	17800 4400 18300 4400
Wire Wire Line
	6650 5100 6550 5100
Wire Wire Line
	6550 4750 6550 5400
Wire Wire Line
	6550 5400 6650 5400
Connection ~ 6550 5100
Wire Wire Line
	6950 5400 7050 5400
Wire Wire Line
	7050 5400 7050 5100
Connection ~ 7050 5100
Text Notes 20000 3100 0    90   ~ 0
pots to be at 45 mm pitch to each other
Text Notes 12000 8450 0    59   ~ 0
missing connection to MCU!!!!\n
$EndSCHEMATC
