(export (version D)
  (design
    (source "//srv-wowwee.ogi.local/users$/segev/My Documents/KiCad Projects/infinitytable_schematic/InfinityTable/InfinityTable.sch")
    (date "11/25/2017 11:37:40 AM")
    (tool "Eeschema 4.0.3-stable")
    (sheet (number 1) (name /) (tstamps /)
      (title_block
        (title)
        (company)
        (rev)
        (date)
        (source InfinityTable.sch)
        (comment (number 1) (value ""))
        (comment (number 2) (value ""))
        (comment (number 3) (value ""))
        (comment (number 4) (value "")))))
  (components
    (comp (ref U2)
      (value STM32L431RBT6)
      (footprint WowWeeFootprints:QFP_64_dot)
      (libsource (lib WowWeeLib) (part STM32L431RBT6))
      (sheetpath (names /) (tstamps /))
      (tstamp 5960EB38))
    (comp (ref R2)
      (value 47k)
      (footprint Resistors_ThroughHole:R_Axial_DIN0207_L6.3mm_D2.5mm_P15.24mm_Horizontal)
      (libsource (lib device) (part R))
      (sheetpath (names /) (tstamps /))
      (tstamp 5960F452))
    (comp (ref M1)
      (value ElectretMic)
      (footprint "WowWeeFootprints:B2B-ZR(LF)(SN)")
      (libsource (lib WowWeeLib) (part ElectretMic))
      (sheetpath (names /) (tstamps /))
      (tstamp 59611131))
    (comp (ref J2)
      (value DF13-5P-1.25DSA)
      (footprint WowWeeFootprints:DF13-5P-1.25DSA)
      (fields
        (field (name PN) DF13-5P-1.25DSA))
      (libsource (lib WowWeeLib) (part DF13-5P-1.25DSA))
      (sheetpath (names /) (tstamps /))
      (tstamp 59611452))
    (comp (ref J3)
      (value DF13-4P-1.25DSA)
      (footprint WowWeeFootprints:DF13-4P-1.25DSA)
      (fields
        (field (name PN) DF13-4P-1.25DSA))
      (libsource (lib WowWeeLib) (part DF13-4P-1.25DSA))
      (sheetpath (names /) (tstamps /))
      (tstamp 596114DD))
    (comp (ref RV1)
      (value POT)
      (footprint WowWeeFootprints:PTV09A-4)
      (fields
        (field (name PN) PTV09A-4030U-B203))
      (libsource (lib device) (part POT))
      (sheetpath (names /) (tstamps /))
      (tstamp 596149C6))
    (comp (ref RV2)
      (value POT)
      (footprint WowWeeFootprints:PTV09A-4)
      (fields
        (field (name PN) PTV09A-4030U-B203))
      (libsource (lib device) (part POT))
      (sheetpath (names /) (tstamps /))
      (tstamp 59615906))
    (comp (ref RV3)
      (value POT)
      (footprint WowWeeFootprints:PTV09A-4)
      (fields
        (field (name PN) PTV09A-4030U-B203))
      (libsource (lib device) (part POT))
      (sheetpath (names /) (tstamps /))
      (tstamp 5961595C))
    (comp (ref R3)
      (value 4.7k)
      (footprint Resistors_ThroughHole:R_Axial_DIN0207_L6.3mm_D2.5mm_P15.24mm_Horizontal)
      (libsource (lib device) (part R))
      (sheetpath (names /) (tstamps /))
      (tstamp 5961675B))
    (comp (ref R5)
      (value 100k)
      (footprint Resistors_ThroughHole:R_Axial_DIN0207_L6.3mm_D2.5mm_P15.24mm_Horizontal)
      (libsource (lib device) (part R))
      (sheetpath (names /) (tstamps /))
      (tstamp 59616994))
    (comp (ref R4)
      (value 100k)
      (footprint Resistors_ThroughHole:R_Axial_DIN0207_L6.3mm_D2.5mm_P15.24mm_Horizontal)
      (libsource (lib device) (part R))
      (sheetpath (names /) (tstamps /))
      (tstamp 59616A40))
    (comp (ref R6)
      (value 100k)
      (footprint Resistors_ThroughHole:R_Axial_DIN0207_L6.3mm_D2.5mm_P15.24mm_Horizontal)
      (libsource (lib device) (part R))
      (sheetpath (names /) (tstamps /))
      (tstamp 59616AAD))
    (comp (ref C11)
      (value 12p)
      (footprint Capacitors_ThroughHole:C_Rect_L7.0mm_W2.5mm_P5.00mm)
      (fields
        (field (name PN) K120J15C0GF5TL2))
      (libsource (lib device) (part C))
      (sheetpath (names /) (tstamps /))
      (tstamp 59616C5F))
    (comp (ref C9)
      (value 6.8u)
      (footprint Capacitors_ThroughHole:C_Rect_L7.0mm_W2.5mm_P5.00mm)
      (fields
        (field (name PN) FK28X5R0J685K))
      (libsource (lib device) (part C))
      (sheetpath (names /) (tstamps /))
      (tstamp 59618FD7))
    (comp (ref SW2)
      (value SW_DIP_x01)
      (libsource (lib InfinityTable-cache) (part SW_DIP_x01))
      (sheetpath (names /) (tstamps /))
      (tstamp 5961F712))
    (comp (ref R12)
      (value 47k)
      (footprint Resistors_ThroughHole:R_Axial_DIN0207_L6.3mm_D2.5mm_P15.24mm_Horizontal)
      (libsource (lib device) (part R))
      (sheetpath (names /) (tstamps /))
      (tstamp 5961F719))
    (comp (ref SW1)
      (value SW_DIP_x01)
      (libsource (lib InfinityTable-cache) (part SW_DIP_x01))
      (sheetpath (names /) (tstamps /))
      (tstamp 5961FBC9))
    (comp (ref R10)
      (value 47k)
      (footprint Resistors_ThroughHole:R_Axial_DIN0207_L6.3mm_D2.5mm_P15.24mm_Horizontal)
      (libsource (lib device) (part R))
      (sheetpath (names /) (tstamps /))
      (tstamp 5961FBD0))
    (comp (ref R7)
      (value 10k)
      (footprint Resistors_ThroughHole:R_Axial_DIN0207_L6.3mm_D2.5mm_P15.24mm_Horizontal)
      (libsource (lib device) (part R))
      (sheetpath (names /) (tstamps /))
      (tstamp 596229C6))
    (comp (ref R8)
      (value 10k)
      (footprint Resistors_ThroughHole:R_Axial_DIN0207_L6.3mm_D2.5mm_P15.24mm_Horizontal)
      (libsource (lib device) (part R))
      (sheetpath (names /) (tstamps /))
      (tstamp 596229D3))
    (comp (ref NC1)
      (value SW_DIP_x01)
      (fields
        (field (name PN) alibaba)
        (field (name Comment) "NO FOOTPRINT"))
      (libsource (lib InfinityTable-cache) (part SW_DIP_x01))
      (sheetpath (names /) (tstamps /))
      (tstamp 59625912))
    (comp (ref NC2)
      (value LED)
      (fields
        (field (name PN) alibaba)
        (field (name Comment) "NO FOOTPRINT"))
      (libsource (lib device) (part LED))
      (sheetpath (names /) (tstamps /))
      (tstamp 5962D7CD))
    (comp (ref C12)
      (value 100n)
      (footprint Capacitors_ThroughHole:C_Rect_L7.0mm_W2.5mm_P5.00mm)
      (fields
        (field (name PN) K104K10X7RF5UH5))
      (libsource (lib device) (part C))
      (sheetpath (names /) (tstamps /))
      (tstamp 596309E0))
    (comp (ref R9)
      (value 10k)
      (footprint Resistors_ThroughHole:R_Axial_DIN0207_L6.3mm_D2.5mm_P15.24mm_Horizontal)
      (libsource (lib device) (part R))
      (sheetpath (names /) (tstamps /))
      (tstamp 59631220))
    (comp (ref R11)
      (value 10k)
      (footprint Resistors_ThroughHole:R_Axial_DIN0207_L6.3mm_D2.5mm_P15.24mm_Horizontal)
      (libsource (lib device) (part R))
      (sheetpath (names /) (tstamps /))
      (tstamp 59631CD6))
    (comp (ref J7)
      (value CONN_01X03)
      (footprint WowWeeFootprints:OQ0354500000G)
      (fields
        (field (name PN) OQ0354500000G))
      (libsource (lib conn) (part CONN_01X03))
      (sheetpath (names /) (tstamps /))
      (tstamp 59D94E8F))
    (comp (ref SP1)
      (value BUZZER)
      (footprint WowWeeFootprints:AT-1224-TWT-5V-2-R)
      (fields
        (field (name PN) AT-1224-TWT-5V-2-R))
      (libsource (lib device) (part SPEAKER))
      (sheetpath (names /) (tstamps /))
      (tstamp 59DAE020))
    (comp (ref Q1)
      (value Q_NMOS_SGD)
      (footprint TO_SOT_Packages_THT:TO-92_Inline_Narrow_Oval)
      (fields
        (field (name PN) VN2106N3-G)
        (field (name Comment) TO92-3))
      (libsource (lib device) (part Q_NMOS_SGD))
      (sheetpath (names /) (tstamps /))
      (tstamp 59DAF4BA))
    (comp (ref D1)
      (value D)
      (footprint Diodes_ThroughHole:D_DO-41_SOD81_P10.16mm_Horizontal)
      (fields
        (field (name PN) SB140TA))
      (libsource (lib device) (part D))
      (sheetpath (names /) (tstamps /))
      (tstamp 59DB0064))
    (comp (ref J6)
      (value CONN_01X02)
      (footprint WowWeeFootprints:OQ0212500000G)
      (fields
        (field (name PN) OQ0212500000G))
      (libsource (lib conn) (part CONN_01X02))
      (sheetpath (names /) (tstamps /))
      (tstamp 59DB6CF2))
    (comp (ref P4)
      (value CONN_01X02)
      (fields
        (field (name PN) TJ0211530000G)
        (field (name Comment) "NO FOOTPRINT"))
      (libsource (lib conn) (part CONN_01X02))
      (sheetpath (names /) (tstamps /))
      (tstamp 59DB7584))
    (comp (ref NC4)
      (value CONN_01X03)
      (fields
        (field (name PN) 20020007-H031B01LF)
        (field (name Comment) "NO FOOTPRINT"))
      (libsource (lib conn) (part CONN_01X03))
      (sheetpath (names /) (tstamps /))
      (tstamp 59DBA743))
    (comp (ref W1)
      (value TEST_1P)
      (footprint WowWeeFootprints:Measurement_Point_Round-SMD-Pad_mini)
      (libsource (lib conn) (part TEST_1P))
      (sheetpath (names /) (tstamps /))
      (tstamp 59EEFB23))
    (comp (ref U1)
      (value MCP1700-3302E/TO-ND)
      (footprint TO_SOT_Packages_THT:TO-92_Inline_Narrow_Oval)
      (datasheet https://www.digikey.ca/product-detail/en/microchip-technology/MCP1700-3302E-TO/MCP1700-3302E-TO-ND/652680)
      (fields
        (field (name PN) MCP1700-3302E/TO-ND))
      (libsource (lib WowWeeLib) (part MCP1700T-3002E/TT))
      (sheetpath (names /) (tstamps /))
      (tstamp 59EFC538))
    (comp (ref C1)
      (value 1u)
      (footprint Capacitors_ThroughHole:CP_Radial_D5.0mm_P2.00mm)
      (fields
        (field (name PN) 860020672005))
      (libsource (lib device) (part CP))
      (sheetpath (names /) (tstamps /))
      (tstamp 59EFC544))
    (comp (ref J11)
      (value BARREL)
      (footprint WowWeeFootprints:PJ-037AH)
      (fields
        (field (name PN) PJ-037AH))
      (libsource (lib conn) (part CONN_01X02))
      (sheetpath (names /) (tstamps /))
      (tstamp 59F469CA))
    (comp (ref J5)
      (value CONN_01X02)
      (footprint WowWeeFootprints:OQ0254500000Y)
      (fields
        (field (name PN) OQ0254500000Y))
      (libsource (lib conn) (part CONN_01X02))
      (sheetpath (names /) (tstamps /))
      (tstamp 59F47BC1))
    (comp (ref J8)
      (value CONN_01X02)
      (footprint WowWeeFootprints:OQ0212500000G)
      (fields
        (field (name PN) OQ0212500000G))
      (libsource (lib conn) (part CONN_01X02))
      (sheetpath (names /) (tstamps /))
      (tstamp 59FA0F2D))
    (comp (ref P5)
      (value CONN_01X02)
      (fields
        (field (name PN) TJ0211530000G)
        (field (name Comment) "NO FOOTPRINT"))
      (libsource (lib conn) (part CONN_01X02))
      (sheetpath (names /) (tstamps /))
      (tstamp 59FA1618))
    (comp (ref P3)
      (value CONN_01X04)
      (fields
        (field (name PN) 20020006-G041B01LF)
        (field (name Comment) "NO FOOTPRINT"))
      (libsource (lib conn) (part CONN_01X04))
      (sheetpath (names /) (tstamps /))
      (tstamp 59FA602B))
    (comp (ref J4)
      (value CONN_01X04)
      (footprint WowWeeFootprints:20020107-G041A01LF)
      (fields
        (field (name PN) 20020107-G041A01LF))
      (libsource (lib conn) (part CONN_01X04))
      (sheetpath (names /) (tstamps /))
      (tstamp 59FA7327))
    (comp (ref J10)
      (value DF13-4P-1.25DSA)
      (footprint WowWeeFootprints:DF13-4P-1.25DSA)
      (fields
        (field (name PN) DF13-4P-1.25DSA))
      (libsource (lib WowWeeLib) (part DF13-4P-1.25DSA))
      (sheetpath (names /) (tstamps /))
      (tstamp 59FB39A9))
    (comp (ref J9)
      (value DF13-4P-1.25DSA)
      (footprint WowWeeFootprints:DF13-4P-1.25DSA)
      (fields
        (field (name PN) DF13-4P-1.25DSA))
      (libsource (lib WowWeeLib) (part DF13-4P-1.25DSA))
      (sheetpath (names /) (tstamps /))
      (tstamp 59FB5A06))
    (comp (ref J1)
      (value CONN_01X02)
      (footprint WowWeeFootprints:OQ0254500000Y)
      (fields
        (field (name PN) OQ0254500000Y))
      (libsource (lib conn) (part CONN_01X02))
      (sheetpath (names /) (tstamps /))
      (tstamp 59FC123B))
    (comp (ref NC3)
      (value CONN_01X02)
      (fields
        (field (name PN) TJ0251530000G)
        (field (name Comment) NO_FOOTPRINT))
      (libsource (lib conn) (part CONN_01X02))
      (sheetpath (names /) (tstamps /))
      (tstamp 59FC5A1E))
    (comp (ref P1)
      (value CONN_01X02)
      (fields
        (field (name PN) TJ0251530000G)
        (field (name Comment) NO_FOOTPRINT))
      (libsource (lib conn) (part CONN_01X02))
      (sheetpath (names /) (tstamps /))
      (tstamp 59FC70DB))
    (comp (ref Q2)
      (value Q_NMOS_SGD)
      (footprint TO_SOT_Packages_THT:TO-92_Inline_Narrow_Oval)
      (fields
        (field (name PN) VN2106N3-G)
        (field (name Comment) TO92-3))
      (libsource (lib device) (part Q_NMOS_SGD))
      (sheetpath (names /) (tstamps /))
      (tstamp 59FCEE0D))
    (comp (ref L1)
      (value Ferrite_Bead)
      (footprint Choke_Axial_ThroughHole:Choke_Horizontal_RM10mm)
      (fields
        (field (name PN) 28L0138-50R-10))
      (libsource (lib InfinityTable-cache) (part Ferrite_Bead))
      (sheetpath (names /) (tstamps /))
      (tstamp 5960F8F7))
    (comp (ref C2)
      (value 1u)
      (footprint Capacitors_ThroughHole:CP_Radial_D5.0mm_P2.00mm)
      (fields
        (field (name PN) 860020672005))
      (libsource (lib device) (part CP))
      (sheetpath (names /) (tstamps /))
      (tstamp 59FE43A8))
    (comp (ref C7)
      (value 1u)
      (footprint Capacitors_ThroughHole:CP_Radial_D5.0mm_P2.00mm)
      (fields
        (field (name PN) 860020672005))
      (libsource (lib device) (part CP))
      (sheetpath (names /) (tstamps /))
      (tstamp 59FE4A58))
    (comp (ref C3)
      (value 1u)
      (footprint Capacitors_ThroughHole:CP_Radial_D5.0mm_P2.00mm)
      (fields
        (field (name PN) 860020672005))
      (libsource (lib device) (part CP))
      (sheetpath (names /) (tstamps /))
      (tstamp 59FE4FDD))
    (comp (ref C4)
      (value 1u)
      (footprint Capacitors_ThroughHole:CP_Radial_D5.0mm_P2.00mm)
      (fields
        (field (name PN) 860020672005))
      (libsource (lib device) (part CP))
      (sheetpath (names /) (tstamps /))
      (tstamp 59FE50A3))
    (comp (ref C5)
      (value 1u)
      (footprint Capacitors_ThroughHole:CP_Radial_D5.0mm_P2.00mm)
      (fields
        (field (name PN) 860020672005))
      (libsource (lib device) (part CP))
      (sheetpath (names /) (tstamps /))
      (tstamp 59FE519F))
    (comp (ref C13)
      (value 1u)
      (footprint Capacitors_ThroughHole:CP_Radial_D5.0mm_P2.00mm)
      (fields
        (field (name PN) 860020672005))
      (libsource (lib device) (part CP))
      (sheetpath (names /) (tstamps /))
      (tstamp 59FE9340))
    (comp (ref C8)
      (value 1u)
      (footprint Capacitors_ThroughHole:CP_Radial_D5.0mm_P2.00mm)
      (fields
        (field (name PN) 860020672005))
      (libsource (lib device) (part CP))
      (sheetpath (names /) (tstamps /))
      (tstamp 59FEDBEA))
    (comp (ref C10)
      (value 6.8u)
      (footprint Capacitors_ThroughHole:C_Rect_L7.0mm_W2.5mm_P5.00mm)
      (fields
        (field (name PN) FK28X5R0J685K))
      (libsource (lib device) (part C))
      (sheetpath (names /) (tstamps /))
      (tstamp 59FEF9F7))
    (comp (ref C14)
      (value 100n)
      (footprint Capacitors_ThroughHole:C_Rect_L7.0mm_W2.5mm_P5.00mm)
      (fields
        (field (name PN) K104K10X7RF5UH5))
      (libsource (lib device) (part C))
      (sheetpath (names /) (tstamps /))
      (tstamp 59FF3214))
    (comp (ref C6)
      (value 100n)
      (footprint Capacitors_ThroughHole:C_Rect_L7.0mm_W2.5mm_P5.00mm)
      (fields
        (field (name PN) K104K10X7RF5UH5))
      (libsource (lib device) (part C))
      (sheetpath (names /) (tstamps /))
      (tstamp 59FF870B))
    (comp (ref R1)
      (value 10)
      (footprint Resistors_ThroughHole:R_Axial_DIN0207_L6.3mm_D2.5mm_P15.24mm_Horizontal)
      (libsource (lib device) (part R))
      (sheetpath (names /) (tstamps /))
      (tstamp 5A000498)))
  (libparts
    (libpart (lib device) (part C)
      (description "Unpolarized capacitor")
      (footprints
        (fp C?)
        (fp C_????_*)
        (fp C_????)
        (fp SMD*_c)
        (fp Capacitor*))
      (fields
        (field (name Reference) C)
        (field (name Value) C))
      (pins
        (pin (num 1) (name ~) (type passive))
        (pin (num 2) (name ~) (type passive))))
    (libpart (lib conn) (part CONN_01X02)
      (description "Connector, single row, 01x02")
      (footprints
        (fp Pin_Header_Straight_1X02)
        (fp Pin_Header_Angled_1X02)
        (fp Socket_Strip_Straight_1X02)
        (fp Socket_Strip_Angled_1X02))
      (fields
        (field (name Reference) P)
        (field (name Value) CONN_01X02))
      (pins
        (pin (num 1) (name P1) (type passive))
        (pin (num 2) (name P2) (type passive))))
    (libpart (lib conn) (part CONN_01X03)
      (description "Connector, single row, 01x03")
      (footprints
        (fp Pin_Header_Straight_1X03)
        (fp Pin_Header_Angled_1X03)
        (fp Socket_Strip_Straight_1X03)
        (fp Socket_Strip_Angled_1X03))
      (fields
        (field (name Reference) P)
        (field (name Value) CONN_01X03))
      (pins
        (pin (num 1) (name P1) (type passive))
        (pin (num 2) (name P2) (type passive))
        (pin (num 3) (name P3) (type passive))))
    (libpart (lib conn) (part CONN_01X04)
      (description "Connector, single row, 01x04")
      (footprints
        (fp Pin_Header_Straight_1X04)
        (fp Pin_Header_Angled_1X04)
        (fp Socket_Strip_Straight_1X04)
        (fp Socket_Strip_Angled_1X04))
      (fields
        (field (name Reference) P)
        (field (name Value) CONN_01X04))
      (pins
        (pin (num 1) (name P1) (type passive))
        (pin (num 2) (name P2) (type passive))
        (pin (num 3) (name P3) (type passive))
        (pin (num 4) (name P4) (type passive))))
    (libpart (lib device) (part CP)
      (description "Polarised capacitor")
      (footprints
        (fp CP*)
        (fp C_Axial*)
        (fp C_Radial*)
        (fp TantalC*)
        (fp C*elec)
        (fp c_elec*)
        (fp SMD*_Pol))
      (fields
        (field (name Reference) C)
        (field (name Value) CP))
      (pins
        (pin (num 1) (name ~) (type passive))
        (pin (num 2) (name ~) (type passive))))
    (libpart (lib device) (part D)
      (description Diode)
      (footprints
        (fp Diode_*)
        (fp D-Pak_TO252AA)
        (fp *SingleDiode)
        (fp *_Diode_*)
        (fp *SingleDiode*))
      (fields
        (field (name Reference) D)
        (field (name Value) D))
      (pins
        (pin (num 1) (name K) (type passive))
        (pin (num 2) (name A) (type passive))))
    (libpart (lib WowWeeLib) (part DF13-4P-1.25DSA)
      (footprints
        (fp DF13-4P-1.25DSA))
      (fields
        (field (name Reference) J)
        (field (name Value) DF13-4P-1.25DSA))
      (pins
        (pin (num 1) (name 1) (type BiDi))
        (pin (num 2) (name 2) (type BiDi))
        (pin (num 3) (name 3) (type BiDi))
        (pin (num 4) (name 4) (type BiDi))))
    (libpart (lib WowWeeLib) (part DF13-5P-1.25DSA)
      (footprints
        (fp DF13-5P-1.25DSA))
      (fields
        (field (name Reference) J)
        (field (name Value) DF13-5P-1.25DSA))
      (pins
        (pin (num 1) (name 1) (type BiDi))
        (pin (num 2) (name 2) (type BiDi))
        (pin (num 3) (name 3) (type BiDi))
        (pin (num 4) (name 4) (type BiDi))
        (pin (num 5) (name 5) (type BiDi))))
    (libpart (lib WowWeeLib) (part ElectretMic)
      (aliases
        (alias microphone)
        (alias mic))
      (description "Electret Microphone")
      (fields
        (field (name Reference) M)
        (field (name Value) ElectretMic))
      (pins
        (pin (num 1) (name NEG-) (type input))
        (pin (num 2) (name POS+) (type input))))
    (libpart (lib InfinityTable-cache) (part Ferrite_Bead)
      (footprints
        (fp Inductor_*)
        (fp L_*)
        (fp *Ferrite*))
      (fields
        (field (name Reference) L)
        (field (name Value) Ferrite_Bead))
      (pins
        (pin (num 1) (name ~) (type passive))
        (pin (num 2) (name ~) (type passive))))
    (libpart (lib device) (part LED)
      (footprints
        (fp LED-*)
        (fp LED_*))
      (fields
        (field (name Reference) D)
        (field (name Value) LED))
      (pins
        (pin (num 1) (name K) (type passive))
        (pin (num 2) (name A) (type passive))))
    (libpart (lib WowWeeLib) (part MCP1700T-3002E/TT)
      (footprints
        (fp SOT-23*))
      (fields
        (field (name Reference) U)
        (field (name Value) MCP1700T-3002E/TT))
      (pins
        (pin (num 1) (name GND) (type power_in))
        (pin (num 2) (name VI) (type power_in))
        (pin (num 3) (name VO) (type power_out))))
    (libpart (lib device) (part POT)
      (description Potentionmetre)
      (fields
        (field (name Reference) RV)
        (field (name Value) POT))
      (pins
        (pin (num 1) (name 1) (type passive))
        (pin (num 2) (name 2) (type passive))
        (pin (num 3) (name 3) (type passive))))
    (libpart (lib device) (part Q_NMOS_SGD)
      (description "Transistor N-MOSFET (general)")
      (fields
        (field (name Reference) Q)
        (field (name Value) Q_NMOS_SGD))
      (pins
        (pin (num 1) (name S) (type passive))
        (pin (num 2) (name G) (type input))
        (pin (num 3) (name D) (type passive))))
    (libpart (lib device) (part R)
      (description Resistor)
      (footprints
        (fp R_*)
        (fp Resistor_*))
      (fields
        (field (name Reference) R)
        (field (name Value) R))
      (pins
        (pin (num 1) (name ~) (type passive))
        (pin (num 2) (name ~) (type passive))))
    (libpart (lib device) (part SPEAKER)
      (description "Audio speaker, 2 pins, generic symbol")
      (fields
        (field (name Reference) SP)
        (field (name Value) SPEAKER))
      (pins
        (pin (num 1) (name 1) (type input))
        (pin (num 2) (name 2) (type input))))
    (libpart (lib WowWeeLib) (part STM32L431RBT6)
      (footprints
        (fp STM32L4_64_QFN))
      (fields
        (field (name Reference) U)
        (field (name Value) STM32L431RBT6))
      (pins
        (pin (num 1) (name VBAT) (type input))
        (pin (num 2) (name PC13) (type input))
        (pin (num 3) (name PC14) (type input))
        (pin (num 4) (name PC15) (type input))
        (pin (num 5) (name PH0) (type input))
        (pin (num 6) (name PH1) (type input))
        (pin (num 7) (name NRST) (type input))
        (pin (num 8) (name PC0) (type input))
        (pin (num 9) (name PC1) (type input))
        (pin (num 10) (name PC2) (type input))
        (pin (num 11) (name PC3) (type input))
        (pin (num 12) (name VSSA/VREF-) (type input))
        (pin (num 13) (name VDDA/VREF+) (type input))
        (pin (num 14) (name PA0) (type input))
        (pin (num 15) (name PA1) (type input))
        (pin (num 16) (name PA2) (type input))
        (pin (num 17) (name PA3) (type input))
        (pin (num 18) (name VSS) (type input))
        (pin (num 19) (name VDD) (type input))
        (pin (num 20) (name PA4) (type input))
        (pin (num 21) (name PA5) (type input))
        (pin (num 22) (name PA6) (type input))
        (pin (num 23) (name PA7) (type input))
        (pin (num 24) (name PC4) (type input))
        (pin (num 25) (name PC5) (type input))
        (pin (num 26) (name PB0) (type input))
        (pin (num 27) (name PB1) (type input))
        (pin (num 28) (name PB2) (type input))
        (pin (num 29) (name PB10) (type input))
        (pin (num 30) (name PB11) (type input))
        (pin (num 31) (name VSS) (type input))
        (pin (num 32) (name VDD) (type input))
        (pin (num 33) (name PB12) (type input))
        (pin (num 34) (name PB13) (type input))
        (pin (num 35) (name PB14) (type input))
        (pin (num 36) (name PB15) (type input))
        (pin (num 37) (name PC6) (type input))
        (pin (num 38) (name PC7) (type input))
        (pin (num 39) (name PC8) (type input))
        (pin (num 40) (name PC9) (type input))
        (pin (num 41) (name PA8) (type input))
        (pin (num 42) (name PA9) (type input))
        (pin (num 43) (name PA10) (type input))
        (pin (num 44) (name PA11) (type input))
        (pin (num 45) (name PA12) (type input))
        (pin (num 46) (name PA13) (type input))
        (pin (num 47) (name VSS) (type input))
        (pin (num 48) (name VDD) (type input))
        (pin (num 49) (name PA14) (type input))
        (pin (num 50) (name PA15) (type input))
        (pin (num 51) (name PC10) (type input))
        (pin (num 52) (name PC11) (type input))
        (pin (num 53) (name PC12) (type input))
        (pin (num 54) (name PD2) (type input))
        (pin (num 55) (name PB3) (type input))
        (pin (num 56) (name PB4) (type input))
        (pin (num 57) (name PB5) (type input))
        (pin (num 58) (name PB6) (type input))
        (pin (num 59) (name PB7) (type input))
        (pin (num 60) (name PH3) (type input))
        (pin (num 61) (name PB8) (type input))
        (pin (num 62) (name PB9) (type input))
        (pin (num 63) (name VSS) (type input))
        (pin (num 64) (name VDD) (type input))))
    (libpart (lib InfinityTable-cache) (part SW_DIP_x01)
      (footprints
        (fp SW?DIP?x1*))
      (fields
        (field (name Reference) SW)
        (field (name Value) SW_DIP_x01))
      (pins
        (pin (num 1) (name ~) (type input))
        (pin (num 2) (name ~) (type input))))
    (libpart (lib conn) (part TEST_1P)
      (description point)
      (fields
        (field (name Reference) W)
        (field (name Value) TEST_1P))
      (pins
        (pin (num 1) (name 1) (type passive)))))
  (libraries
    (library (logical conn)
      (uri "C:\\Program Files\\KiCad\\share\\kicad\\library\\conn.lib"))
    (library (logical WowWeeLib)
      (uri Z:\EMBEDDED\KiCad\WowWeeLib\WowWeeLib.lib))
    (library (logical InfinityTable-cache)
      (uri "\\\\srv-wowwee.ogi.local\\users$\\segev\\My Documents\\KiCad Projects\\infinitytable_schematic\\InfinityTable\\InfinityTable-cache.lib"))
    (library (logical device)
      (uri "C:\\Program Files\\KiCad\\share\\kicad\\library\\device.lib")))
  (nets
    (net (code 1) (name GND)
      (node (ref C10) (pin 1))
      (node (ref J1) (pin 2))
      (node (ref J8) (pin 1))
      (node (ref J6) (pin 1))
      (node (ref C8) (pin 2))
      (node (ref Q1) (pin 1))
      (node (ref J2) (pin 3))
      (node (ref C4) (pin 2))
      (node (ref C3) (pin 2))
      (node (ref C7) (pin 2))
      (node (ref J7) (pin 3))
      (node (ref C2) (pin 2))
      (node (ref C5) (pin 2))
      (node (ref U2) (pin 31))
      (node (ref U2) (pin 18))
      (node (ref U2) (pin 60))
      (node (ref U2) (pin 63))
      (node (ref J3) (pin 4))
      (node (ref U2) (pin 47))
      (node (ref U2) (pin 12))
      (node (ref M1) (pin 1))
      (node (ref C6) (pin 2))
      (node (ref C14) (pin 2))
      (node (ref U1) (pin 1))
      (node (ref R5) (pin 2))
      (node (ref C1) (pin 2))
      (node (ref C12) (pin 2)))
    (net (code 2) (name "Net-(C9-Pad2)")
      (node (ref M1) (pin 2))
      (node (ref C9) (pin 2))
      (node (ref R3) (pin 2)))
    (net (code 3) (name "Net-(C11-Pad1)")
      (node (ref R6) (pin 1))
      (node (ref C11) (pin 1)))
    (net (code 4) (name 3V3A)
      (node (ref L1) (pin 1))
      (node (ref U2) (pin 13))
      (node (ref C3) (pin 1))
      (node (ref R3) (pin 1))
      (node (ref R1) (pin 1))
      (node (ref J10) (pin 4))
      (node (ref R4) (pin 1)))
    (net (code 5) (name /3V3A_POW)
      (node (ref RV3) (pin 1))
      (node (ref RV2) (pin 1))
      (node (ref RV1) (pin 1))
      (node (ref J9) (pin 4))
      (node (ref C13) (pin 1)))
    (net (code 6) (name GND_POW)
      (node (ref J5) (pin 2))
      (node (ref C13) (pin 2))
      (node (ref J11) (pin 2))
      (node (ref RV3) (pin 3))
      (node (ref J4) (pin 4))
      (node (ref RV2) (pin 3))
      (node (ref RV1) (pin 3)))
    (net (code 7) (name "Net-(NC3-Pad1)")
      (node (ref NC3) (pin 1)))
    (net (code 8) (name "Net-(NC3-Pad2)")
      (node (ref NC3) (pin 2)))
    (net (code 9) (name "Net-(P1-Pad1)")
      (node (ref P1) (pin 1)))
    (net (code 10) (name "Net-(P1-Pad2)")
      (node (ref P1) (pin 2)))
    (net (code 11) (name +3V3)
      (node (ref R10) (pin 1))
      (node (ref U2) (pin 1))
      (node (ref R7) (pin 1))
      (node (ref U2) (pin 32))
      (node (ref J3) (pin 1))
      (node (ref U2) (pin 19))
      (node (ref U2) (pin 64))
      (node (ref U1) (pin 3))
      (node (ref R12) (pin 1))
      (node (ref R2) (pin 1))
      (node (ref J2) (pin 1))
      (node (ref C2) (pin 1))
      (node (ref C8) (pin 1))
      (node (ref Q2) (pin 2))
      (node (ref L1) (pin 2))
      (node (ref R1) (pin 2))
      (node (ref C6) (pin 1)))
    (net (code 12) (name /MIC_OUT)
      (node (ref U2) (pin 17))
      (node (ref W1) (pin 1)))
    (net (code 13) (name "Net-(J4-Pad2)")
      (node (ref J4) (pin 2))
      (node (ref J4) (pin 3))
      (node (ref J5) (pin 1)))
    (net (code 14) (name "Net-(NC1-Pad1)")
      (node (ref P3) (pin 1))
      (node (ref NC1) (pin 1)))
    (net (code 15) (name "Net-(NC2-Pad1)")
      (node (ref NC2) (pin 1))
      (node (ref P3) (pin 4)))
    (net (code 16) (name "Net-(NC2-Pad2)")
      (node (ref NC2) (pin 2))
      (node (ref P3) (pin 3)))
    (net (code 17) (name "Net-(J8-Pad2)")
      (node (ref R12) (pin 2))
      (node (ref J8) (pin 2))
      (node (ref R11) (pin 2)))
    (net (code 18) (name "Net-(NC1-Pad2)")
      (node (ref P3) (pin 2))
      (node (ref NC1) (pin 2)))
    (net (code 19) (name "Net-(J11-Pad1)")
      (node (ref J4) (pin 1))
      (node (ref J11) (pin 1)))
    (net (code 20) (name "Net-(J6-Pad2)")
      (node (ref R9) (pin 2))
      (node (ref R10) (pin 2))
      (node (ref J6) (pin 2)))
    (net (code 21) (name "Net-(P4-Pad1)")
      (node (ref P4) (pin 1))
      (node (ref SW1) (pin 2)))
    (net (code 22) (name "Net-(P4-Pad2)")
      (node (ref P4) (pin 2))
      (node (ref SW1) (pin 1)))
    (net (code 23) (name "Net-(P5-Pad2)")
      (node (ref P5) (pin 2))
      (node (ref SW2) (pin 1)))
    (net (code 24) (name "Net-(P5-Pad1)")
      (node (ref SW2) (pin 2))
      (node (ref P5) (pin 1)))
    (net (code 25) (name "Net-(D1-Pad2)")
      (node (ref D1) (pin 2))
      (node (ref SP1) (pin 2))
      (node (ref Q1) (pin 3)))
    (net (code 26) (name +5V)
      (node (ref J1) (pin 1))
      (node (ref U1) (pin 2))
      (node (ref C1) (pin 1))
      (node (ref SP1) (pin 1))
      (node (ref D1) (pin 1))
      (node (ref J7) (pin 1))
      (node (ref R8) (pin 1)))
    (net (code 27) (name /POT2)
      (node (ref U2) (pin 9))
      (node (ref C5) (pin 1))
      (node (ref J10) (pin 2)))
    (net (code 28) (name /POT3)
      (node (ref C7) (pin 1))
      (node (ref J10) (pin 1))
      (node (ref U2) (pin 10)))
    (net (code 29) (name /POT1)
      (node (ref U2) (pin 8))
      (node (ref C4) (pin 1))
      (node (ref J10) (pin 3)))
    (net (code 30) (name /SWD_CLK)
      (node (ref J2) (pin 2))
      (node (ref U2) (pin 49)))
    (net (code 31) (name /SWD_IO)
      (node (ref J2) (pin 4))
      (node (ref U2) (pin 48)))
    (net (code 32) (name /LED_STRIP_DO)
      (node (ref R7) (pin 2))
      (node (ref Q2) (pin 1))
      (node (ref U2) (pin 23)))
    (net (code 33) (name /UART_RX)
      (node (ref U2) (pin 43))
      (node (ref J3) (pin 3)))
    (net (code 34) (name /UART_TX)
      (node (ref U2) (pin 42))
      (node (ref J3) (pin 2)))
    (net (code 35) (name /POT1_POW)
      (node (ref RV1) (pin 2))
      (node (ref J9) (pin 3)))
    (net (code 36) (name /POT2_POW)
      (node (ref J9) (pin 2))
      (node (ref RV2) (pin 2)))
    (net (code 37) (name /POT3_POW)
      (node (ref RV3) (pin 2))
      (node (ref J9) (pin 1)))
    (net (code 38) (name /OPAMP_VINM)
      (node (ref C11) (pin 2))
      (node (ref C9) (pin 1))
      (node (ref R6) (pin 2))
      (node (ref U2) (pin 15)))
    (net (code 39) (name /MCU_NRESET)
      (node (ref R2) (pin 2))
      (node (ref J2) (pin 5))
      (node (ref U2) (pin 7)))
    (net (code 40) (name "Net-(U2-Pad62)")
      (node (ref U2) (pin 62)))
    (net (code 41) (name "Net-(U2-Pad51)")
      (node (ref U2) (pin 51)))
    (net (code 42) (name "Net-(U2-Pad61)")
      (node (ref U2) (pin 61)))
    (net (code 43) (name "Net-(U2-Pad22)")
      (node (ref U2) (pin 22)))
    (net (code 44) (name "Net-(U2-Pad52)")
      (node (ref U2) (pin 52)))
    (net (code 45) (name "Net-(U2-Pad33)")
      (node (ref U2) (pin 33)))
    (net (code 46) (name "Net-(U2-Pad53)")
      (node (ref U2) (pin 53)))
    (net (code 47) (name "Net-(U2-Pad24)")
      (node (ref U2) (pin 24)))
    (net (code 48) (name "Net-(U2-Pad2)")
      (node (ref U2) (pin 2)))
    (net (code 49) (name "Net-(U2-Pad3)")
      (node (ref U2) (pin 3)))
    (net (code 50) (name "Net-(U2-Pad4)")
      (node (ref U2) (pin 4)))
    (net (code 51) (name "Net-(U2-Pad5)")
      (node (ref U2) (pin 5)))
    (net (code 52) (name "Net-(U2-Pad6)")
      (node (ref U2) (pin 6)))
    (net (code 53) (name "Net-(U2-Pad34)")
      (node (ref U2) (pin 34)))
    (net (code 54) (name "Net-(U2-Pad20)")
      (node (ref U2) (pin 20)))
    (net (code 55) (name "Net-(U2-Pad30)")
      (node (ref U2) (pin 30)))
    (net (code 56) (name "Net-(U2-Pad40)")
      (node (ref U2) (pin 40)))
    (net (code 57) (name "Net-(U2-Pad50)")
      (node (ref U2) (pin 50)))
    (net (code 58) (name "Net-(U2-Pad11)")
      (node (ref U2) (pin 11)))
    (net (code 59) (name "Net-(U2-Pad21)")
      (node (ref U2) (pin 21)))
    (net (code 60) (name "Net-(U2-Pad39)")
      (node (ref U2) (pin 39)))
    (net (code 61) (name "Net-(U2-Pad57)")
      (node (ref U2) (pin 57)))
    (net (code 62) (name "Net-(U2-Pad28)")
      (node (ref U2) (pin 28)))
    (net (code 63) (name "Net-(U2-Pad38)")
      (node (ref U2) (pin 38)))
    (net (code 64) (name "Net-(U2-Pad58)")
      (node (ref U2) (pin 58)))
    (net (code 65) (name "Net-(U2-Pad29)")
      (node (ref U2) (pin 29)))
    (net (code 66) (name "Net-(U2-Pad59)")
      (node (ref U2) (pin 59)))
    (net (code 67) (name /OPAMP_VINP)
      (node (ref R4) (pin 2))
      (node (ref R5) (pin 1))
      (node (ref U2) (pin 14))
      (node (ref C10) (pin 2)))
    (net (code 68) (name "Net-(U2-Pad16)")
      (node (ref U2) (pin 16)))
    (net (code 69) (name "Net-(U2-Pad44)")
      (node (ref U2) (pin 44)))
    (net (code 70) (name "Net-(U2-Pad54)")
      (node (ref U2) (pin 54)))
    (net (code 71) (name "Net-(U2-Pad25)")
      (node (ref U2) (pin 25)))
    (net (code 72) (name "Net-(U2-Pad45)")
      (node (ref U2) (pin 45)))
    (net (code 73) (name "Net-(U2-Pad55)")
      (node (ref U2) (pin 55)))
    (net (code 74) (name "Net-(U2-Pad26)")
      (node (ref U2) (pin 26)))
    (net (code 75) (name "Net-(U2-Pad46)")
      (node (ref U2) (pin 46)))
    (net (code 76) (name "Net-(U2-Pad56)")
      (node (ref U2) (pin 56)))
    (net (code 77) (name "Net-(U2-Pad27)")
      (node (ref U2) (pin 27)))
    (net (code 78) (name "Net-(U2-Pad37)")
      (node (ref U2) (pin 37)))
    (net (code 79) (name /BUZZER_PWM)
      (node (ref U2) (pin 41))
      (node (ref Q1) (pin 2)))
    (net (code 80) (name "Net-(NC4-Pad1)")
      (node (ref NC4) (pin 1)))
    (net (code 81) (name "Net-(NC4-Pad2)")
      (node (ref NC4) (pin 2)))
    (net (code 82) (name "Net-(NC4-Pad3)")
      (node (ref NC4) (pin 3)))
    (net (code 83) (name /LED_STRIP_DO_5V)
      (node (ref R8) (pin 2))
      (node (ref J7) (pin 2))
      (node (ref Q2) (pin 3)))
    (net (code 84) (name /BUTTON1)
      (node (ref U2) (pin 36))
      (node (ref R9) (pin 1))
      (node (ref C12) (pin 1)))
    (net (code 85) (name /BUTTON2)
      (node (ref R11) (pin 1))
      (node (ref U2) (pin 35))
      (node (ref C14) (pin 1)))))