M48
INCH,TZ
T1C0.075
T2C0.138
T3C0.236
%
G90
G05
T2
X172441Y-44882
X172441Y-68110
X215354Y-44882
X215354Y-68110
T3
X185827Y-15748
X205512Y-15748
T1
X176063Y-14685G85X176063Y-15236
G05
X180236Y-14685G85X180236Y-15236
G05
X193780Y-14685G85X193780Y-15236
G05
X197953Y-14685G85X197953Y-15236
G05
X211496Y-14685G85X211496Y-15236
G05
X215669Y-14685G85X215669Y-15236
G05
T0
M30
